test/main.vcd
$version Generated by VerilatedVcd $end
$date Sat Dec  7 16:27:50 2024 $end
$timescale 1ps $end

 $scope module TOP $end
  $var wire 32 g A0 [31:0] $end
  $var wire  1 d clk $end
  $var wire  1 e rst $end
  $var wire  1 f trigger_in $end
  $scope module main $end
   $var wire 32 g A0 [31:0] $end
   $var wire  2 ) ALUop [1:0] $end
   $var wire  1 ( ALUsrc $end
   $var wire  5 % AdIn [4:0] $end
   $var wire  5 & AdOut1 [4:0] $end
   $var wire  5 ' AdOut2 [4:0] $end
   $var wire 32 0 DOutAlu [31:0] $end
   $var wire 32 $ IMMop [31:0] $end
   $var wire  3 , IMMsrc [2:0] $end
   $var wire 32 / PC [31:0] $end
   $var wire  2 . PCsrc [1:0] $end
   $var wire  1 * RamWrite $end
   $var wire  1 + RegWrite $end
   $var wire  2 - ResultSrc [1:0] $end
   $var wire 32 h WA [31:0] $end
   $var wire 32 i WD [31:0] $end
   $var wire  1 d clk $end
   $var wire  1 1 flag $end
   $var wire  3 j func3 [2:0] $end
   $var wire 32 # instr [31:0] $end
   $var wire  1 e rst $end
   $var wire  1 f trigger_in $end
   $scope module C1 $end
    $var wire  2 ) ALUop [1:0] $end
    $var wire  1 ( ALUsrc $end
    $var wire  3 , IMMsrc [2:0] $end
    $var wire  2 . PCsrc [1:0] $end
    $var wire  2 3 PCsrc_req1 [1:0] $end
    $var wire  1 * RamWrite $end
    $var wire  1 + RegWrite $end
    $var wire  2 - ResultSrc [1:0] $end
    $var wire 32 i W [31:0] $end
    $var wire  1 1 flag $end
    $var wire 32 # instr [31:0] $end
    $var wire  7 2 op7 [6:0] $end
   $upscope $end
   $scope module D1 $end
    $var wire 32 g A0 [31:0] $end
    $var wire  3 < ALUctrl [2:0] $end
    $var wire  3 = ALUflag [2:0] $end
    $var wire  2 ) ALUop [1:0] $end
    $var wire  1 ( ALUsrc $end
    $var wire  5 % AdIn [4:0] $end
    $var wire  5 & AdOut1 [4:0] $end
    $var wire  5 ' AdOut2 [4:0] $end
    $var wire 32 7 DInReg [31:0] $end
    $var wire 32 4 DOut1 [31:0] $end
    $var wire 32 5 DOut2 [31:0] $end
    $var wire 32 0 DOutAlu [31:0] $end
    $var wire 32 8 DOutRam [31:0] $end
    $var wire 32 $ IMM [31:0] $end
    $var wire  3 , IMMsrc [2:0] $end
    $var wire 32 6 N2 [31:0] $end
    $var wire 32 / PC [31:0] $end
    $var wire  1 * RamWrite $end
    $var wire  1 + RegWrite $end
    $var wire  2 - ResultSrc [1:0] $end
    $var wire 32 h WAD [31:0] $end
    $var wire 32 i WD [31:0] $end
    $var wire  1 d clk $end
    $var wire  1 1 flag $end
    $var wire  3 ; func3 [2:0] $end
    $var wire  1 : func75 $end
    $var wire 32 # instr [31:0] $end
    $var wire  1 9 op5 $end
    $var wire  1 f trigger $end
    $scope module A1 $end
     $var wire  3 < ALUctrl [2:0] $end
     $var wire  3 = ALUflag [2:0] $end
     $var wire 32 4 N1 [31:0] $end
     $var wire 32 6 N2 [31:0] $end
     $var wire 32 i W [31:0] $end
     $var wire  1 1 flag $end
     $var wire 32 0 out [31:0] $end
    $upscope $end
    $scope module A11 $end
     $var wire  3 < ALUctrl [2:0] $end
     $var wire  2 ) ALUop [1:0] $end
     $var wire  3 ; func3 [2:0] $end
     $var wire  1 : func75 $end
     $var wire  1 9 op5 $end
    $upscope $end
    $scope module A12 $end
     $var wire  3 = ALUflag [2:0] $end
     $var wire  2 ) ALUop [1:0] $end
     $var wire  3 ; func3 [2:0] $end
    $upscope $end
    $scope module I1 $end
     $var wire  3 , IMMsrc [2:0] $end
     $var wire 32 i W [31:0] $end
     $var wire 32 # instr [31:0] $end
     $var wire 32 $ out [31:0] $end
     $var wire  1 > sign $end
    $upscope $end
    $scope module R1 $end
     $var wire 32 g A0 [31:0] $end
     $var wire  5 & A1 [4:0] $end
     $var wire  5 ' A2 [4:0] $end
     $var wire 32 h ADDRESS_WIDTH [31:0] $end
     $var wire 32 i DATA_WIDTH [31:0] $end
     $var wire 32 4 DOut1 [31:0] $end
     $var wire 32 5 DOut2 [31:0] $end
     $var wire  1 f TRIGGER $end
     $var wire 32 7 WD3 [31:0] $end
     $var wire  1 + WE3 $end
     $var wire  1 d clk $end
     $var wire 32 ? register_array[0] [31:0] $end
     $var wire 32 I register_array[10] [31:0] $end
     $var wire 32 J register_array[11] [31:0] $end
     $var wire 32 K register_array[12] [31:0] $end
     $var wire 32 L register_array[13] [31:0] $end
     $var wire 32 M register_array[14] [31:0] $end
     $var wire 32 N register_array[15] [31:0] $end
     $var wire 32 O register_array[16] [31:0] $end
     $var wire 32 P register_array[17] [31:0] $end
     $var wire 32 Q register_array[18] [31:0] $end
     $var wire 32 R register_array[19] [31:0] $end
     $var wire 32 @ register_array[1] [31:0] $end
     $var wire 32 S register_array[20] [31:0] $end
     $var wire 32 T register_array[21] [31:0] $end
     $var wire 32 U register_array[22] [31:0] $end
     $var wire 32 V register_array[23] [31:0] $end
     $var wire 32 W register_array[24] [31:0] $end
     $var wire 32 X register_array[25] [31:0] $end
     $var wire 32 Y register_array[26] [31:0] $end
     $var wire 32 Z register_array[27] [31:0] $end
     $var wire 32 [ register_array[28] [31:0] $end
     $var wire 32 \ register_array[29] [31:0] $end
     $var wire 32 A register_array[2] [31:0] $end
     $var wire 32 ] register_array[30] [31:0] $end
     $var wire 32 ^ register_array[31] [31:0] $end
     $var wire 32 B register_array[3] [31:0] $end
     $var wire 32 C register_array[4] [31:0] $end
     $var wire 32 D register_array[5] [31:0] $end
     $var wire 32 E register_array[6] [31:0] $end
     $var wire 32 F register_array[7] [31:0] $end
     $var wire 32 G register_array[8] [31:0] $end
     $var wire 32 H register_array[9] [31:0] $end
     $var wire  5 % write_addr [4:0] $end
    $upscope $end
    $scope module R2 $end
     $var wire 32 0 Ad [31:0] $end
     $var wire 18 _ AdM [17:0] $end
     $var wire 32 5 DIn [31:0] $end
     $var wire 32 8 DOut [31:0] $end
     $var wire  1 * RamWrite $end
     $var wire 32 i WA [31:0] $end
     $var wire 32 k WAM [31:0] $end
     $var wire 32 l WB [31:0] $end
     $var wire 32 i WD [31:0] $end
     $var wire  1 d clk $end
     $var wire  3 ; func3 [2:0] $end
     $var wire 32 ` show [31:0] $end
    $upscope $end
   $upscope $end
   $scope module D2 $end
    $var wire 32 0 DOutAlu [31:0] $end
    $var wire 32 $ IMMop [31:0] $end
    $var wire 32 / PC [31:0] $end
    $var wire 32 a PCN [31:0] $end
    $var wire  2 . PCsrc [1:0] $end
    $var wire 32 i W [31:0] $end
    $var wire 32 b branch_pc [31:0] $end
    $var wire  1 d clk $end
    $var wire 32 # instr [31:0] $end
    $var wire  1 e rst $end
    $scope module P1 $end
     $var wire 32 / PC [31:0] $end
     $var wire 32 a PCN [31:0] $end
     $var wire 32 i W [31:0] $end
     $var wire  1 d clk $end
     $var wire  1 e rst $end
    $upscope $end
    $scope module R1 $end
     $var wire  8 c AddrIn [7:0] $end
     $var wire 32 # DOut [31:0] $end
     $var wire 32 l WAD [31:0] $end
     $var wire 32 l WD [31:0] $end
    $upscope $end
   $upscope $end
  $upscope $end
 $upscope $end
$enddefinitions $end


#0
b00000000000000000000000000000000 #
b00000000000000000000000000000000 $
b00000 %
b00000 &
b00000 '
0(
b00 )
0*
0+
b000 ,
b00 -
b00 .
b00000000000000000000000000000000 /
b00000000000000000000000000000000 0
11
b0000000 2
b00 3
b00000000000000000000000000000000 4
b00000000000000000000000000000000 5
b00000000000000000000000000000000 6
b00000000000000000000000000000000 7
b00000000000000000000000000000000 8
09
0:
b000 ;
b000 <
b000 =
0>
b00000000000000000000000000000000 ?
b00000000000000000000000000000000 @
b00000000000000000000000000000000 A
b00000000000000000000000000000000 B
b00000000000000000000000000000000 C
b00000000000000000000000000000000 D
b00000000000000000000000000000000 E
b00000000000000000000000000000000 F
b00000000000000000000000000000000 G
b00000000000000000000000000000000 H
b00000000000000000000000000000000 I
b00000000000000000000000000000000 J
b00000000000000000000000000000000 K
b00000000000000000000000000000000 L
b00000000000000000000000000000000 M
b00000000000000000000000000000000 N
b00000000000000000000000000000000 O
b00000000000000000000000000000000 P
b00000000000000000000000000000000 Q
b00000000000000000000000000000000 R
b00000000000000000000000000000000 S
b00000000000000000000000000000000 T
b00000000000000000000000000000000 U
b00000000000000000000000000000000 V
b00000000000000000000000000000000 W
b00000000000000000000000000000000 X
b00000000000000000000000000000000 Y
b00000000000000000000000000000000 Z
b00000000000000000000000000000000 [
b00000000000000000000000000000000 \
b00000000000000000000000000000000 ]
b00000000000000000000000000000000 ^
b000000000000000000 _
b00000000000000000000000000000000 `
b00000000000000000000000000000100 a
b00000000000000000000000000000000 b
b00000000 c
0d
0e
0f
b00000000000000000000000000000000 g
b00000000000000000000000000000101 h
b00000000000000000000000000100000 i
b000 j
b00000000000000000000000000010010 k
b00000000000000000000000000001000 l
#1
b00000000000100000000010010010011 #
b00000000000000000000000000000001 $
b01001 %
b00001 '
1(
b10 )
1+
b00000000000000000000000000000001 0
01
b0010011 2
b00000000000000000000000000000001 6
b00000000000000000000000000000001 7
b00000000000000000000000000000010 8
19
b000000000000000001 _
b00010100000101010001011000010111 `
b00000000000000000000000000000001 b
1d
#2
0d
#3
b00001111111100000000100100010011 #
b00000000000000000000000011111111 $
b10010 %
b11111 '
b00000000000000000000000000000100 /
b00000000000000000000000011111111 0
b00000000000000000000000011111111 6
b00000000000000000000000011111111 7
b11111111111111111111111110100111 8
b00000000000000000000000000000001 H
b000000000011111111 _
b00000000000000000000000000001000 a
b00000000000000000000000100000011 b
b00000100 c
1d
#4
0d
#5
b00000000001100000000100110010011 #
b00000000000000000000000000000011 $
b10011 %
b00011 '
b00000000000000000000000000001000 /
b00000000000000000000000000000011 0
b00000000000000000000000000000011 6
b00000000000000000000000000000011 7
b00000000000000000000000000000100 8
b00000000000000000000000011111111 Q
b000000000000000011 _
b00000000000000000000000000001100 a
b00000000000000000000000000001011 b
b00001000 c
1d
#6
0d
#7
b00000000000100000000011010010011 #
b00000000000000000000000000000001 $
b01101 %
b00001 '
b00000000000000000000000000001100 /
b00000000000000000000000000000001 0
b00000000000000000000000000000001 6
b00000000000000000000000000000001 7
b00000000000000000000000000000010 8
b00000000000000000000000000000011 R
b000000000000000001 _
b00000000000000000000000000010000 a
b00000000000000000000000000001101 b
b00001100 c
1d
#8
0d
#9
b00000000000000000000010100010011 #
b00000000000000000000000000000000 $
b01010 %
b00000 '
b00000000000000000000000000010000 /
b00000000000000000000000000000000 0
11
b00000000000000000000000000000000 6
b00000000000000000000000000000000 7
b00000000000000000000000000000001 8
b00000000000000000000000000000001 L
b000000000000000000 _
b00000000000000000000000000010100 a
b00000000000000000000000000010000 b
b00010000 c
1d
#10
0d
#11
b00000000000000000000011100010011 #
b01110 %
b00000000000000000000000000010100 /
b00000000000000000000000000011000 a
b00000000000000000000000000010100 b
b00010100 c
1d
#12
0d
#13
b00000000000000000000001010010011 #
b00101 %
b00000000000000000000000000011000 /
b00000000000000000000000000011100 a
b00000000000000000000000000011000 b
b00011000 c
1d
#14
0d
#15
b00000010100100101000001001100011 #
b00000000000000000000000000100100 $
b00100 %
b00101 &
b01001 '
b01 )
0+
b010 ,
b00000000000000000000000000011100 /
b11111111111111111111111111011100 0
01
b1100011 2
b01 3
b00000000000000000000000000000001 5
b00000000000000000000000000100100 6
b11111111111111111111111111011100 7
b00000000000000000000000000000000 8
b001 <
b111111111111011100 _
b00000000000000000000000000100000 a
b00000000000000000000000001000000 b
b00011100 c
1d
#16
0d
#17
b00000000010101101101011000010011 #
b00000000000000000000000000000101 $
b01100 %
b01101 &
b00101 '
b10 )
1+
b000 ,
b00000000000000000000000000100000 /
b00000000000000000000000000000000 0
b0010011 2
b00 3
b00000000000000000000000000000001 4
b00000000000000000000000000000000 5
b00000000000000000000000000000101 6
b00000000000000000000000000000000 7
b00000000000000000000000100000010 8
b101 ;
b111 <
b100 =
b000000000000000000 _
b00000000000000000000000000100100 a
b00000000000000000000000000100101 b
b00100000 c
1d
#18
0d
#19
b00000000000101100111011000010011 #
b00000000000000000000000000000001 $
b01100 &
b00001 '
b00000000000000000000000000100100 /
11
b00000000000000000000000000000000 4
b00000000000000000000000000000001 6
b00000001000000100000001100000100 8
b111 ;
b010 <
b011 =
b00000000000000000000000000101000 a
b00100100 c
1d
#20
0d
#21
b00000000110101100100011000110011 #
b00000000000000000000000000001101 $
b01101 '
b00000000000000000000000000101000 /
b00000000000000000000000000001101 0
b0110011 2
b00000000000000000000000000000001 5
b00000000000000000000000000001101 6
b00000000000000000000000000001101 7
b00000000000000000000000000010000 8
b100 ;
b100 <
b101 =
b000000000000001101 _
b00000000000000000000000000101100 a
b00000000000000000000000000110101 b
b00101000 c
1d
#22
0d
#23
b00000000000101100111011000010011 #
b00000000000000000000000000000001 $
b00001 '
b00000000000000000000000000101100 /
b00000000000000000000000000000001 0
b0010011 2
b00000000000000000000000000001101 4
b00000000000000000000000000000000 5
b00000000000000000000000000000001 6
b00000000000000000000000000000001 7
b00000010000000110000010000000101 8
b111 ;
b010 <
b011 =
b00000000000000000000000000001101 K
b000000000000000001 _
b00000000000000000000000000110000 a
b00000000000000000000000000101101 b
b00101100 c
1d
#24
0d
#25
b00000000000101101001011010010011 #
b01101 %
b01101 &
b00000000000000000000000000110000 /
b00000000000000000000000000000010 0
b00000000000000000000000000000001 4
b00000000000000000000000000000010 7
b00000000000000000000001100000100 8
b001 ;
b110 <
b001 =
b00000000000000000000000000000001 K
b000000000000000010 _
b00000000000000000000000000110100 a
b00000000000000000000000000110001 b
b00110000 c
1d
#26
0d
#27
b00000000110001101000011010110011 #
b00000000000000000000000000001100 $
b01100 '
b00000000000000000000000000110100 /
b00000000000000000000000000001110 0
01
b0110011 2
b00000000000000000000000000000010 4
b00000000000000000000000000000001 5
b00000000000000000000000000001100 6
b00000000000000000000000000001110 7
b00000000000000000000000000010001 8
b000 ;
b000 <
b000 =
b00000000000000000000000000000010 L
b000000000000001110 _
b00000000000000000000000000111000 a
b00000000000000000000000001000000 b
b00110100 c
1d
#28
0d
#29
b00000000111101101111011010010011 #
b00000000000000000000000000001111 $
b01111 '
b00000000000000000000000000111000 /
11
b0010011 2
b00000000000000000000000000001110 4
b00000000000000000000000000000000 5
b00000000000000000000000000001111 6
b00010001000100100001010000010101 8
b111 ;
b010 <
b011 =
b00000000000000000000000000001110 L
b00000000000000000000000000111100 a
b00000000000000000000000001000111 b
b00111000 c
1d
#30
0d
#31
b11111110000111111111000011101111 #
b11111111111111111111111111100000 $
b00001 %
b11111 &
b00001 '
b11 )
b100 ,
b10 -
b01 .
b00000000000000000000000000111100 /
b11111111111111111111111111100000 0
b1101111 2
b01 3
b00000000000000000000000000000000 4
b11111111111111111111111111100000 6
b00000000000000000000000001000000 7
b00000000000000000000000000000000 8
1:
b000 <
1>
b111111111111100000 _
b00000000000000000000000000011100 a
b00000000000000000000000000011100 b
b00111100 c
1d
#32
0d
#33
b00000010100100101000001001100011 #
b00000000000000000000000000100100 $
b00100 %
b00101 &
b01001 '
b01 )
0+
b010 ,
b00 -
b00 .
b00000000000000000000000000011100 /
b11111111111111111111111111011100 0
01
b1100011 2
b00000000000000000000000000000001 5
b00000000000000000000000000100100 6
b11111111111111111111111111011100 7
0:
b000 ;
b001 <
b000 =
0>
b00000000000000000000000001000000 @
b111111111111011100 _
b00000000000000000000000000100000 a
b00000000000000000000000001000000 b
b00011100 c
1d
#34
0d
#35
b00000000010101101101011000010011 #
b00000000000000000000000000000101 $
b01100 %
b01101 &
b00101 '
b10 )
1+
b000 ,
b00000000000000000000000000100000 /
b00000000000000000000000000000000 0
b0010011 2
b00 3
b00000000000000000000000000001110 4
b00000000000000000000000000000000 5
b00000000000000000000000000000101 6
b00000000000000000000000000000000 7
b00000000000000000000000100000010 8
b101 ;
b111 <
b100 =
b000000000000000000 _
b00000000000000000000000000100100 a
b00000000000000000000000000100101 b
b00100000 c
1d
#36
0d
#37
b00000000000101100111011000010011 #
b00000000000000000000000000000001 $
b01100 &
b00001 '
b00000000000000000000000000100100 /
11
b00000000000000000000000000000000 4
b00000000000000000000000001000000 5
b00000000000000000000000000000001 6
b00000001000000100000001100000100 8
b111 ;
b010 <
b011 =
b00000000000000000000000000000000 K
b00000000000000000000000000101000 a
b00100100 c
1d
#38
0d
#39
b00000000110101100100011000110011 #
b00000000000000000000000000001101 $
b01101 '
b00000000000000000000000000101000 /
b00000000000000000000000000001101 0
b0110011 2
b00000000000000000000000000001110 5
b00000000000000000000000000001101 6
b00000000000000000000000000001101 7
b00000000000000000000000000010000 8
b100 ;
b100 <
b101 =
b000000000000001101 _
b00000000000000000000000000101100 a
b00000000000000000000000000110101 b
b00101000 c
1d
#40
0d
#41
b00000000000101100111011000010011 #
b00000000000000000000000000000001 $
b00001 '
b00000000000000000000000000101100 /
b00000000000000000000000000000001 0
b0010011 2
b00000000000000000000000000001101 4
b00000000000000000000000001000000 5
b00000000000000000000000000000001 6
b00000000000000000000000000000001 7
b00000010000000110000010000000101 8
b111 ;
b010 <
b011 =
b00000000000000000000000000001101 K
b000000000000000001 _
b00000000000000000000000000110000 a
b00000000000000000000000000101101 b
b00101100 c
1d
#42
0d
#43
b00000000000101101001011010010011 #
b01101 %
b01101 &
b00000000000000000000000000110000 /
b00000000000000000000000000011100 0
b00000000000000000000000000001110 4
b00000000000000000000000000011100 7
b00000000000000000010001000100011 8
b001 ;
b110 <
b001 =
b00000000000000000000000000000001 K
b000000000000011100 _
b00000000000000000000000000110100 a
b00000000000000000000000000110001 b
b00110000 c
1d
#44
0d
#45
b00000000110001101000011010110011 #
b00000000000000000000000000001100 $
b01100 '
b00000000000000000000000000110100 /
b00000000000000000000000000101000 0
01
b0110011 2
b00000000000000000000000000011100 4
b00000000000000000000000000000001 5
b00000000000000000000000000001100 6
b00000000000000000000000000101000 7
b00000000000000000000000000110000 8
b000 ;
b000 <
b000 =
b00000000000000000000000000011100 L
b000000000000101000 _
b00000000000000000000000000111000 a
b00000000000000000000000001000000 b
b00110100 c
1d
#46
0d
#47
b00000000111101101111011010010011 #
b00000000000000000000000000001111 $
b01111 '
b00000000000000000000000000111000 /
b00000000000000000000000000001000 0
11
b0010011 2
b00000000000000000000000000101000 4
b00000000000000000000000000000000 5
b00000000000000000000000000001111 6
b00000000000000000000000000001000 7
b00001010000010110000110000001110 8
b111 ;
b010 <
b011 =
b00000000000000000000000000101000 L
b000000000000001000 _
b00000000000000000000000000111100 a
b00000000000000000000000001000111 b
b00111000 c
1d
#48
0d
#49
b11111110000111111111000011101111 #
b11111111111111111111111111100000 $
b00001 %
b11111 &
b00001 '
b11 )
b100 ,
b10 -
b01 .
b00000000000000000000000000111100 /
b11111111111111111111111111100000 0
b1101111 2
b01 3
b00000000000000000000000000000000 4
b00000000000000000000000001000000 5
b11111111111111111111111111100000 6
b00000000000000000000000001000000 7
b00000000000000000000000000000000 8
1:
b000 <
1>
b00000000000000000000000000001000 L
b111111111111100000 _
b00000000000000000000000000011100 a
b00000000000000000000000000011100 b
b00111100 c
1d
#50
0d
#51
b00000010100100101000001001100011 #
b00000000000000000000000000100100 $
b00100 %
b00101 &
b01001 '
b01 )
0+
b010 ,
b00 -
b00 .
b00000000000000000000000000011100 /
b11111111111111111111111111011100 0
01
b1100011 2
b00000000000000000000000000000001 5
b00000000000000000000000000100100 6
b11111111111111111111111111011100 7
0:
b000 ;
b001 <
b000 =
0>
b111111111111011100 _
b00000000000000000000000000100000 a
b00000000000000000000000001000000 b
b00011100 c
1d
#52
0d
#53
b00000000010101101101011000010011 #
b00000000000000000000000000000101 $
b01100 %
b01101 &
b00101 '
b10 )
1+
b000 ,
b00000000000000000000000000100000 /
b00000000000000000000000000000000 0
b0010011 2
b00 3
b00000000000000000000000000001000 4
b00000000000000000000000000000000 5
b00000000000000000000000000000101 6
b00000000000000000000000000000000 7
b00000000000000000000000100000010 8
b101 ;
b111 <
b100 =
b000000000000000000 _
b00000000000000000000000000100100 a
b00000000000000000000000000100101 b
b00100000 c
1d
#54
0d
#55
b00000000000101100111011000010011 #
b00000000000000000000000000000001 $
b01100 &
b00001 '
b00000000000000000000000000100100 /
11
b00000000000000000000000000000000 4
b00000000000000000000000001000000 5
b00000000000000000000000000000001 6
b00000001000000100000001100000100 8
b111 ;
b010 <
b011 =
b00000000000000000000000000000000 K
b00000000000000000000000000101000 a
b00100100 c
1d
#56
0d
#57
b00000000110101100100011000110011 #
b00000000000000000000000000001101 $
b01101 '
b00000000000000000000000000101000 /
b00000000000000000000000000001101 0
b0110011 2
b00000000000000000000000000001000 5
b00000000000000000000000000001101 6
b00000000000000000000000000001101 7
b00000000000000000000000000010000 8
b100 ;
b100 <
b101 =
b000000000000001101 _
b00000000000000000000000000101100 a
b00000000000000000000000000110101 b
b00101000 c
1d
#58
0d
#59
b00000000000101100111011000010011 #
b00000000000000000000000000000001 $
b00001 '
b00000000000000000000000000101100 /
b00000000000000000000000000000001 0
b0010011 2
b00000000000000000000000000001101 4
b00000000000000000000000001000000 5
b00000000000000000000000000000001 6
b00000000000000000000000000000001 7
b00000010000000110000010000000101 8
b111 ;
b010 <
b011 =
b00000000000000000000000000001101 K
b000000000000000001 _
b00000000000000000000000000110000 a
b00000000000000000000000000101101 b
b00101100 c
1d
#60
0d
#61
b00000000000101101001011010010011 #
b01101 %
b01101 &
b00000000000000000000000000110000 /
b00000000000000000000000000010000 0
b00000000000000000000000000001000 4
b00000000000000000000000000010000 7
b00000000000000000001010000010101 8
b001 ;
b110 <
b001 =
b00000000000000000000000000000001 K
b000000000000010000 _
b00000000000000000000000000110100 a
b00000000000000000000000000110001 b
b00110000 c
1d
#62
0d
#63
b00000000110001101000011010110011 #
b00000000000000000000000000001100 $
b01100 '
b00000000000000000000000000110100 /
b00000000000000000000000000011100 0
01
b0110011 2
b00000000000000000000000000010000 4
b00000000000000000000000000000001 5
b00000000000000000000000000001100 6
b00000000000000000000000000011100 7
b00000000000000000000000000100010 8
b000 ;
b000 <
b000 =
b00000000000000000000000000010000 L
b000000000000011100 _
b00000000000000000000000000111000 a
b00000000000000000000000001000000 b
b00110100 c
1d
#64
0d
#65
b00000000111101101111011010010011 #
b00000000000000000000000000001111 $
b01111 '
b00000000000000000000000000111000 /
b00000000000000000000000000001100 0
11
b0010011 2
b00000000000000000000000000011100 4
b00000000000000000000000000000000 5
b00000000000000000000000000001111 6
b00000000000000000000000000001100 7
b00001111000100000001000100010010 8
b111 ;
b010 <
b011 =
b00000000000000000000000000011100 L
b000000000000001100 _
b00000000000000000000000000111100 a
b00000000000000000000000001000111 b
b00111000 c
1d
#66
0d
#67
b11111110000111111111000011101111 #
b11111111111111111111111111100000 $
b00001 %
b11111 &
b00001 '
b11 )
b100 ,
b10 -
b01 .
b00000000000000000000000000111100 /
b11111111111111111111111111100000 0
b1101111 2
b01 3
b00000000000000000000000000000000 4
b00000000000000000000000001000000 5
b11111111111111111111111111100000 6
b00000000000000000000000001000000 7
b00000000000000000000000000000000 8
1:
b000 <
1>
b00000000000000000000000000001100 L
b111111111111100000 _
b00000000000000000000000000011100 a
b00000000000000000000000000011100 b
b00111100 c
1d
#68
0d
#69
b00000010100100101000001001100011 #
b00000000000000000000000000100100 $
b00100 %
b00101 &
b01001 '
b01 )
0+
b010 ,
b00 -
b00 .
b00000000000000000000000000011100 /
b11111111111111111111111111011100 0
01
b1100011 2
b00000000000000000000000000000001 5
b00000000000000000000000000100100 6
b11111111111111111111111111011100 7
0:
b000 ;
b001 <
b000 =
0>
b111111111111011100 _
b00000000000000000000000000100000 a
b00000000000000000000000001000000 b
b00011100 c
1d
#70
0d
#71
b00000000010101101101011000010011 #
b00000000000000000000000000000101 $
b01100 %
b01101 &
b00101 '
b10 )
1+
b000 ,
b00000000000000000000000000100000 /
b00000000000000000000000000000000 0
b0010011 2
b00 3
b00000000000000000000000000001100 4
b00000000000000000000000000000000 5
b00000000000000000000000000000101 6
b00000000000000000000000000000000 7
b00000000000000000000000100000010 8
b101 ;
b111 <
b100 =
b000000000000000000 _
b00000000000000000000000000100100 a
b00000000000000000000000000100101 b
b00100000 c
1d
#72
0d
#73
b00000000000101100111011000010011 #
b00000000000000000000000000000001 $
b01100 &
b00001 '
b00000000000000000000000000100100 /
11
b00000000000000000000000000000000 4
b00000000000000000000000001000000 5
b00000000000000000000000000000001 6
b00000001000000100000001100000100 8
b111 ;
b010 <
b011 =
b00000000000000000000000000000000 K
b00000000000000000000000000101000 a
b00100100 c
1d
#74
0d
#75
b00000000110101100100011000110011 #
b00000000000000000000000000001101 $
b01101 '
b00000000000000000000000000101000 /
b00000000000000000000000000001101 0
b0110011 2
b00000000000000000000000000001100 5
b00000000000000000000000000001101 6
b00000000000000000000000000001101 7
b00000000000000000000000000010000 8
b100 ;
b100 <
b101 =
b000000000000001101 _
b00000000000000000000000000101100 a
b00000000000000000000000000110101 b
b00101000 c
1d
#76
0d
#77
b00000000000101100111011000010011 #
b00000000000000000000000000000001 $
b00001 '
b00000000000000000000000000101100 /
b00000000000000000000000000000001 0
b0010011 2
b00000000000000000000000000001101 4
b00000000000000000000000001000000 5
b00000000000000000000000000000001 6
b00000000000000000000000000000001 7
b00000010000000110000010000000101 8
b111 ;
b010 <
b011 =
b00000000000000000000000000001101 K
b000000000000000001 _
b00000000000000000000000000110000 a
b00000000000000000000000000101101 b
b00101100 c
1d
#78
0d
#79
b00000000000101101001011010010011 #
b01101 %
b01101 &
b00000000000000000000000000110000 /
b00000000000000000000000000011000 0
b00000000000000000000000000001100 4
b00000000000000000000000000011000 7
b00000000000000000001110100011110 8
b001 ;
b110 <
b001 =
b00000000000000000000000000000001 K
b000000000000011000 _
b00000000000000000000000000110100 a
b00000000000000000000000000110001 b
b00110000 c
1d
#80
0d
#81
b00000000110001101000011010110011 #
b00000000000000000000000000001100 $
b01100 '
b00000000000000000000000000110100 /
b00000000000000000000000000100100 0
01
b0110011 2
b00000000000000000000000000011000 4
b00000000000000000000000000000001 5
b00000000000000000000000000001100 6
b00000000000000000000000000100100 7
b00000000000000000000000000101011 8
b000 ;
b000 <
b000 =
b00000000000000000000000000011000 L
b000000000000100100 _
b00000000000000000000000000111000 a
b00000000000000000000000001000000 b
b00110100 c
1d
#82
0d
#83
b00000000111101101111011010010011 #
b00000000000000000000000000001111 $
b01111 '
b00000000000000000000000000111000 /
b00000000000000000000000000000100 0
11
b0010011 2
b00000000000000000000000000100100 4
b00000000000000000000000000000000 5
b00000000000000000000000000001111 6
b00000000000000000000000000000100 7
b00000101000001110000100000001001 8
b111 ;
b010 <
b011 =
b00000000000000000000000000100100 L
b000000000000000100 _
b00000000000000000000000000111100 a
b00000000000000000000000001000111 b
b00111000 c
1d
#84
0d
#85
b11111110000111111111000011101111 #
b11111111111111111111111111100000 $
b00001 %
b11111 &
b00001 '
b11 )
b100 ,
b10 -
b01 .
b00000000000000000000000000111100 /
b11111111111111111111111111100000 0
b1101111 2
b01 3
b00000000000000000000000000000000 4
b00000000000000000000000001000000 5
b11111111111111111111111111100000 6
b00000000000000000000000001000000 7
b00000000000000000000000000000000 8
1:
b000 <
1>
b00000000000000000000000000000100 L
b111111111111100000 _
b00000000000000000000000000011100 a
b00000000000000000000000000011100 b
b00111100 c
1d
#86
0d
#87
b00000010100100101000001001100011 #
b00000000000000000000000000100100 $
b00100 %
b00101 &
b01001 '
b01 )
0+
b010 ,
b00 -
b00 .
b00000000000000000000000000011100 /
b11111111111111111111111111011100 0
01
b1100011 2
b00000000000000000000000000000001 5
b00000000000000000000000000100100 6
b11111111111111111111111111011100 7
0:
b000 ;
b001 <
b000 =
0>
b111111111111011100 _
b00000000000000000000000000100000 a
b00000000000000000000000001000000 b
b00011100 c
1d
#88
0d
#89
b00000000010101101101011000010011 #
b00000000000000000000000000000101 $
b01100 %
b01101 &
b00101 '
b10 )
1+
b000 ,
b00000000000000000000000000100000 /
b00000000000000000000000000000000 0
b0010011 2
b00 3
b00000000000000000000000000000100 4
b00000000000000000000000000000000 5
b00000000000000000000000000000101 6
b00000000000000000000000000000000 7
b00000000000000000000000100000010 8
b101 ;
b111 <
b100 =
b000000000000000000 _
b00000000000000000000000000100100 a
b00000000000000000000000000100101 b
b00100000 c
1d
#90
0d
1f
#91
b00000000000101100111011000010011 #
b00000000000000000000000000000001 $
b01100 &
b00001 '
b00000000000000000000000000100100 /
11
b00000000000000000000000000000000 4
b00000000000000000000000001000000 5
b00000000000000000000000000000001 6
b00000001000000100000001100000100 8
b111 ;
b010 <
b011 =
b00000000000000000000000000000001 D
b00000000000000000000000000000000 K
b00000000000000000000000000101000 a
b00100100 c
1d
#92
0d
0f
#93
b00000000110101100100011000110011 #
b00000000000000000000000000001101 $
b01101 '
b00000000000000000000000000101000 /
b00000000000000000000000000001101 0
b0110011 2
b00000000000000000000000000000100 5
b00000000000000000000000000001101 6
b00000000000000000000000000001101 7
b00000000000000000000000000010000 8
b100 ;
b100 <
b101 =
b000000000000001101 _
b00000000000000000000000000101100 a
b00000000000000000000000000110101 b
b00101000 c
1d
#94
0d
#95
b00000000000101100111011000010011 #
b00000000000000000000000000000001 $
b00001 '
b00000000000000000000000000101100 /
b00000000000000000000000000000001 0
b0010011 2
b00000000000000000000000000001101 4
b00000000000000000000000001000000 5
b00000000000000000000000000000001 6
b00000000000000000000000000000001 7
b00000010000000110000010000000101 8
b111 ;
b010 <
b011 =
b00000000000000000000000000001101 K
b000000000000000001 _
b00000000000000000000000000110000 a
b00000000000000000000000000101101 b
b00101100 c
1d
#96
0d
