single_cycle_RISC-V/obj_dir/Test1.vcd
$version Generated by VerilatedVcd $end
$date Tue Dec 10 15:08:05 2024 $end
$timescale 1ps $end

 $scope module TOP $end
  $var wire 32 ` Result [31:0] $end
  $var wire  1 _ TRIGGER $end
  $var wire 32 a a0 [31:0] $end
  $var wire  1 ] clk $end
  $var wire  1 ^ rst $end
  $scope module main_top $end
   $var wire  4 Z ALUCtrl [3:0] $end
   $var wire 32 Q ALUResult [31:0] $end
   $var wire  1 T ALUSrc $end
   $var wire  3 Y ALUop [2:0] $end
   $var wire 32 d DATA_WIDTH [31:0] $end
   $var wire 32 e DIn [31:0] $end
   $var wire  3 X IMMsrc [2:0] $end
   $var wire 32 O ImmExt [31:0] $end
   $var wire  1 S MemWrite $end
   $var wire 32 # PC [31:0] $end
   $var wire 32 b PCN [31:0] $end
   $var wire 32 $ PCPlus4 [31:0] $end
   $var wire  2 V PCSrc [1:0] $end
   $var wire 32 c PCTarget [31:0] $end
   $var wire 32 & RD1 [31:0] $end
   $var wire 32 ' RD2 [31:0] $end
   $var wire 32 R ReadData [31:0] $end
   $var wire  1 U RegWrite $end
   $var wire 32 ` Result [31:0] $end
   $var wire  2 W ResultSrc [1:0] $end
   $var wire 32 P SrcB [31:0] $end
   $var wire  1 _ TRIGGER $end
   $var wire 32 a a0 [31:0] $end
   $var wire  1 [ branch $end
   $var wire  1 ] clk $end
   $var wire 32 % instr [31:0] $end
   $var wire  1 ^ rst $end
   $scope module ALU $end
    $var wire  4 Z ALUCtrl [3:0] $end
    $var wire 32 Q ALUResult [31:0] $end
    $var wire 32 & SrcA [31:0] $end
    $var wire 32 P SrcB [31:0] $end
    $var wire 32 d W [31:0] $end
    $var wire  1 [ branch $end
   $upscope $end
   $scope module ALUDecode $end
    $var wire  4 Z ALUCtrl [3:0] $end
    $var wire  3 Y ALUop [2:0] $end
    $var wire  3 ( funct3 [2:0] $end
    $var wire  1 ) funct75 $end
   $upscope $end
   $scope module Branch $end
    $var wire 32 O ImmExt [31:0] $end
    $var wire 32 # PC [31:0] $end
    $var wire 32 c PCTarget [31:0] $end
    $var wire 32 d W [31:0] $end
   $upscope $end
   $scope module ControlUnit $end
    $var wire  1 T ALUSrc $end
    $var wire  3 Y ALUop [2:0] $end
    $var wire  3 X ImmSrc [2:0] $end
    $var wire  1 S MemWrite $end
    $var wire  2 V PCSrc [1:0] $end
    $var wire  1 U RegWrite $end
    $var wire  2 W ResultSrc [1:0] $end
    $var wire  1 [ branch $end
    $var wire  7 * opcode [6:0] $end
   $upscope $end
   $scope module DataMemory $end
    $var wire 32 Q ALUResult [31:0] $end
    $var wire 17 \ AdM [16:0] $end
    $var wire  1 S MemWrite $end
    $var wire 32 R ReadData [31:0] $end
    $var wire 32 d WA [31:0] $end
    $var wire 32 f WAM [31:0] $end
    $var wire 32 g WB [31:0] $end
    $var wire 32 d WD [31:0] $end
    $var wire 32 e WriteData [31:0] $end
    $var wire  1 ] clk $end
    $var wire  3 ( funct3 [2:0] $end
   $upscope $end
   $scope module Extend $end
    $var wire  3 X IMMsrc [2:0] $end
    $var wire 32 O ImmExt [31:0] $end
    $var wire 32 d W [31:0] $end
    $var wire 32 % instr [31:0] $end
    $var wire  1 + sign $end
   $upscope $end
   $scope module Incrementby4 $end
    $var wire 32 # PC [31:0] $end
    $var wire 32 $ PCPlus4 [31:0] $end
    $var wire 32 d W [31:0] $end
   $upscope $end
   $scope module InstructionMemory $end
    $var wire 32 # AddrIn [31:0] $end
    $var wire 32 d DATA_WIDTH [31:0] $end
    $var wire 32 f WAD [31:0] $end
    $var wire 32 g WD [31:0] $end
    $var wire 32 % instr [31:0] $end
   $upscope $end
   $scope module PCReg $end
    $var wire 32 # PC [31:0] $end
    $var wire 32 b PCN [31:0] $end
    $var wire 32 d W [31:0] $end
    $var wire  1 ] clk $end
    $var wire  1 ^ rst $end
   $upscope $end
   $scope module PCSrc_mux $end
    $var wire 32 Q ALUResult [31:0] $end
    $var wire 32 d DATA_WIDTH [31:0] $end
    $var wire 32 b PCN [31:0] $end
    $var wire 32 $ PCPlus4 [31:0] $end
    $var wire  2 V PCSrc [1:0] $end
    $var wire 32 c PCTarget [31:0] $end
   $upscope $end
   $scope module RegisterFile $end
    $var wire  5 , AdIn [4:0] $end
    $var wire  5 - AdOut1 [4:0] $end
    $var wire  5 . AdOut2 [4:0] $end
    $var wire 32 ` DIn [31:0] $end
    $var wire 32 & RD1 [31:0] $end
    $var wire 32 ' RD2 [31:0] $end
    $var wire 32 / RegArr[0] [31:0] $end
    $var wire 32 9 RegArr[10] [31:0] $end
    $var wire 32 : RegArr[11] [31:0] $end
    $var wire 32 ; RegArr[12] [31:0] $end
    $var wire 32 < RegArr[13] [31:0] $end
    $var wire 32 = RegArr[14] [31:0] $end
    $var wire 32 > RegArr[15] [31:0] $end
    $var wire 32 ? RegArr[16] [31:0] $end
    $var wire 32 @ RegArr[17] [31:0] $end
    $var wire 32 A RegArr[18] [31:0] $end
    $var wire 32 B RegArr[19] [31:0] $end
    $var wire 32 0 RegArr[1] [31:0] $end
    $var wire 32 C RegArr[20] [31:0] $end
    $var wire 32 D RegArr[21] [31:0] $end
    $var wire 32 E RegArr[22] [31:0] $end
    $var wire 32 F RegArr[23] [31:0] $end
    $var wire 32 G RegArr[24] [31:0] $end
    $var wire 32 H RegArr[25] [31:0] $end
    $var wire 32 I RegArr[26] [31:0] $end
    $var wire 32 J RegArr[27] [31:0] $end
    $var wire 32 K RegArr[28] [31:0] $end
    $var wire 32 L RegArr[29] [31:0] $end
    $var wire 32 1 RegArr[2] [31:0] $end
    $var wire 32 M RegArr[30] [31:0] $end
    $var wire 32 N RegArr[31] [31:0] $end
    $var wire 32 2 RegArr[3] [31:0] $end
    $var wire 32 3 RegArr[4] [31:0] $end
    $var wire 32 4 RegArr[5] [31:0] $end
    $var wire 32 5 RegArr[6] [31:0] $end
    $var wire 32 6 RegArr[7] [31:0] $end
    $var wire 32 7 RegArr[8] [31:0] $end
    $var wire 32 8 RegArr[9] [31:0] $end
    $var wire  1 U RegWrite $end
    $var wire  1 _ TRIGGER $end
    $var wire 32 h WAD [31:0] $end
    $var wire 32 d WD [31:0] $end
    $var wire 32 a a0 [31:0] $end
    $var wire  1 ] clk $end
   $upscope $end
   $scope module SrcB_mux $end
    $var wire  1 T ALUSrc $end
    $var wire 32 O ImmExt [31:0] $end
    $var wire 32 ' RD2 [31:0] $end
    $var wire 32 P SrcB [31:0] $end
    $var wire 32 d W [31:0] $end
   $upscope $end
   $scope module WriteBack_mux $end
    $var wire 32 Q ALUResult [31:0] $end
    $var wire 32 R ReadData [31:0] $end
    $var wire 32 ` Result [31:0] $end
    $var wire  2 W ResultSrc [1:0] $end
    $var wire 32 d W [31:0] $end
   $upscope $end
  $upscope $end
 $upscope $end
$enddefinitions $end


#0
b00000000000000000000000000000000 #
b00000000000000000000000000000100 $
b00000000000000000000000000000000 %
b00000000000000000000000000000000 &
b00000000000000000000000000000000 '
b000 (
0)
b0000000 *
0+
b00000 ,
b00000 -
b00000 .
b00000000000000000000000000000000 /
b00000000000000000000000000000000 0
b00000000000000000000000000000000 1
b00000000000000000000000000000000 2
b00000000000000000000000000000000 3
b00000000000000000000000000000000 4
b00000000000000000000000000000000 5
b00000000000000000000000000000000 6
b00000000000000000000000000000000 7
b00000000000000000000000000000000 8
b00000000000000000000000000000000 9
b00000000000000000000000000000000 :
b00000000000000000000000000000000 ;
b00000000000000000000000000000000 <
b00000000000000000000000000000000 =
b00000000000000000000000000000000 >
b00000000000000000000000000000000 ?
b00000000000000000000000000000000 @
b00000000000000000000000000000000 A
b00000000000000000000000000000000 B
b00000000000000000000000000000000 C
b00000000000000000000000000000000 D
b00000000000000000000000000000000 E
b00000000000000000000000000000000 F
b00000000000000000000000000000000 G
b00000000000000000000000000000000 H
b00000000000000000000000000000000 I
b00000000000000000000000000000000 J
b00000000000000000000000000000000 K
b00000000000000000000000000000000 L
b00000000000000000000000000000000 M
b00000000000000000000000000000000 N
b00000000000000000000000000000000 O
b00000000000000000000000000000000 P
b00000000000000000000000000000000 Q
b00000000000000000000000000000000 R
0S
0T
0U
b00 V
b00 W
b000 X
b000 Y
b0000 Z
0[
b00000000000000000 \
1]
0^
0_
b00000000000000000000000000000000 `
b00000000000000000000000000000000 a
b00000000000000000000000000000100 b
b00000000000000000000000000000000 c
b00000000000000000000000000100000 d
b00000000000000000000000000000000 e
b00000000000000000000000000010001 f
b00000000000000000000000000001000 g
b00000000000000000000000000000101 h
#1
b00001111111100000000001100010011 %
b0010011 *
b00110 ,
b11111 .
b00000000000000000000000011111111 O
b00000000000000000000000011111111 P
b00000000000000000000000011111111 Q
1T
1U
b001 Y
b00000000011111111 \
0]
b00000000000000000000000011111111 `
b00000000000000000000000011111111 c
#2
b00000000000000000000000000000100 #
b00000000000000000000000000001000 $
b00000000000000000000010100010011 %
b01010 ,
b00000 .
b00000000000000000000000011111111 5
b00000000000000000000000000000000 O
b00000000000000000000000000000000 P
b00000000000000000000000000000000 Q
b00000000000000000000000000010011 R
b00000000000000000 \
1]
1^
b00000000000000000000000000000000 `
b00000000000000000000000000001000 b
b00000000000000000000000000000100 c
#3
0]
#4
b00000000000000000000000000000000 #
b00000000000000000000000000000100 $
b00001111111100000000001100010011 %
b00110 ,
b11111 .
b00000000000000000000000011111111 O
b00000000000000000000000011111111 P
b00000000000000000000000011111111 Q
b00000000000000000000000000000000 R
b00000000011111111 \
1]
b00000000000000000000000011111111 `
b00000000000000000000000000000100 b
b00000000000000000000000011111111 c
#5
0]
#6
1]
#7
0]
#8
1]
0^
#9
0]
#10
b00000000000000000000000000000100 #
b00000000000000000000000000001000 $
b00000000000000000000010100010011 %
b01010 ,
b00000 .
b00000000000000000000000000000000 O
b00000000000000000000000000000000 P
b00000000000000000000000000000000 Q
b00000000000000000000000000010011 R
b00000000000000000 \
1]
b00000000000000000000000000000000 `
b00000000000000000000000000001000 b
b00000000000000000000000000000100 c
#11
0]
#12
b00000000000000000000000000001000 #
b00000000000000000000000000001100 $
b00000000000000000000010110010011 %
b01011 ,
1]
b00000000000000000000000000001100 b
b00000000000000000000000000001000 c
#13
0]
#14
b00000000000000000000000000001100 #
b00000000000000000000000000010000 $
b00000000000001011000010100010011 %
b01010 ,
b01011 -
1]
b00000000000000000000000000010000 b
b00000000000000000000000000001100 c
#15
0]
#16
b00000000000000000000000000010000 #
b00000000000000000000000000010100 $
b00000000000101011000010110010011 %
b01011 ,
b00001 .
b00000000000000000000000000000001 O
b00000000000000000000000000000001 P
b00000000000000000000000000000001 Q
b00000000000000000000000000000011 R
b00000000000000001 \
1]
b00000000000000000000000000000001 `
b00000000000000000000000000010100 b
b00000000000000000000000000010001 c
#17
0]
#18
b00000000000000000000000000010100 #
b00000000000000000000000000011000 $
b11111110011001011001110011100011 %
b00000000000000000000000000000001 &
b00000000000000000000000011111111 '
b001 (
1)
b1100011 *
1+
b11001 ,
b00110 .
b00000000000000000000000000000001 :
b11111111111111111111111111111000 O
b00000000000000000000000011111111 P
b00000000000000000000000000000000 Q
b00000000000000000001001100000011 R
0T
0U
b01 V
b010 X
b100 Y
b1011 Z
1[
b00000000000000000 \
1]
b00000000000000000000000000000000 `
b00000000000000000000000000001100 b
b00000000000000000000000000001100 c
#19
0]
#20
b00000000000000000000000000001100 #
b00000000000000000000000000010000 $
b00000000000001011000010100010011 %
b00000000000000000000000000000000 '
b000 (
0)
b0010011 *
0+
b01010 ,
b00000 .
b00000000000000000000000000000000 O
b00000000000000000000000000000000 P
b00000000000000000000000000000001 Q
b00000000000000000000000000000011 R
1T
1U
b00 V
b000 X
b001 Y
b0000 Z
0[
b00000000000000001 \
1]
b00000000000000000000000000000001 `
b00000000000000000000000000010000 b
#21
0]
#22
b00000000000000000000000000010000 #
b00000000000000000000000000010100 $
b00000000000101011000010110010011 %
b01011 ,
b00001 .
b00000000000000000000000000000001 9
b00000000000000000000000000000001 O
b00000000000000000000000000000001 P
b00000000000000000000000000000010 Q
b11111111111111111111111111110000 R
b00000000000000010 \
1]
b00000000000000000000000000000010 `
b00000000000000000000000000000001 a
b00000000000000000000000000010100 b
b00000000000000000000000000010001 c
#23
0]
#24
b00000000000000000000000000010100 #
b00000000000000000000000000011000 $
b11111110011001011001110011100011 %
b00000000000000000000000000000010 &
b00000000000000000000000011111111 '
b001 (
1)
b1100011 *
1+
b11001 ,
b00110 .
b00000000000000000000000000000010 :
b11111111111111111111111111111000 O
b00000000000000000000000011111111 P
b00000000000000000000000000000000 Q
b00000000000000000001001100000011 R
0T
0U
b01 V
b010 X
b100 Y
b1011 Z
1[
b00000000000000000 \
1]
b00000000000000000000000000000000 `
b00000000000000000000000000001100 b
b00000000000000000000000000001100 c
#25
0]
#26
b00000000000000000000000000001100 #
b00000000000000000000000000010000 $
b00000000000001011000010100010011 %
b00000000000000000000000000000000 '
b000 (
0)
b0010011 *
0+
b01010 ,
b00000 .
b00000000000000000000000000000000 O
b00000000000000000000000000000000 P
b00000000000000000000000000000010 Q
b11111111111111111111111111110000 R
1T
1U
b00 V
b000 X
b001 Y
b0000 Z
0[
b00000000000000010 \
1]
b00000000000000000000000000000010 `
b00000000000000000000000000010000 b
#27
0]
#28
b00000000000000000000000000010000 #
b00000000000000000000000000010100 $
b00000000000101011000010110010011 %
b01011 ,
b00001 .
b00000000000000000000000000000010 9
b00000000000000000000000000000001 O
b00000000000000000000000000000001 P
b00000000000000000000000000000011 Q
b00000000000000000000000000001111 R
b00000000000000011 \
1]
b00000000000000000000000000000011 `
b00000000000000000000000000000010 a
b00000000000000000000000000010100 b
b00000000000000000000000000010001 c
#29
0]
#30
b00000000000000000000000000010100 #
b00000000000000000000000000011000 $
b11111110011001011001110011100011 %
b00000000000000000000000000000011 &
b00000000000000000000000011111111 '
b001 (
1)
b1100011 *
1+
b11001 ,
b00110 .
b00000000000000000000000000000011 :
b11111111111111111111111111111000 O
b00000000000000000000000011111111 P
b00000000000000000000000000000000 Q
b00000000000000000001001100000011 R
0T
0U
b01 V
b010 X
b100 Y
b1011 Z
1[
b00000000000000000 \
1]
b00000000000000000000000000000000 `
b00000000000000000000000000001100 b
b00000000000000000000000000001100 c
#31
0]
#32
b00000000000000000000000000001100 #
b00000000000000000000000000010000 $
b00000000000001011000010100010011 %
b00000000000000000000000000000000 '
b000 (
0)
b0010011 *
0+
b01010 ,
b00000 .
b00000000000000000000000000000000 O
b00000000000000000000000000000000 P
b00000000000000000000000000000011 Q
b00000000000000000000000000001111 R
1T
1U
b00 V
b000 X
b001 Y
b0000 Z
0[
b00000000000000011 \
1]
b00000000000000000000000000000011 `
b00000000000000000000000000010000 b
#33
0]
#34
b00000000000000000000000000010000 #
b00000000000000000000000000010100 $
b00000000000101011000010110010011 %
b01011 ,
b00001 .
b00000000000000000000000000000011 9
b00000000000000000000000000000001 O
b00000000000000000000000000000001 P
b00000000000000000000000000000100 Q
b00000000000000000000000000010011 R
b00000000000000100 \
1]
b00000000000000000000000000000100 `
b00000000000000000000000000000011 a
b00000000000000000000000000010100 b
b00000000000000000000000000010001 c
#35
0]
#36
b00000000000000000000000000010100 #
b00000000000000000000000000011000 $
b11111110011001011001110011100011 %
b00000000000000000000000000000100 &
b00000000000000000000000011111111 '
b001 (
1)
b1100011 *
1+
b11001 ,
b00110 .
b00000000000000000000000000000100 :
b11111111111111111111111111111000 O
b00000000000000000000000011111111 P
b00000000000000000000000000000000 Q
b00000000000000000001001100000011 R
0T
0U
b01 V
b010 X
b100 Y
b1011 Z
1[
b00000000000000000 \
1]
b00000000000000000000000000000000 `
b00000000000000000000000000001100 b
b00000000000000000000000000001100 c
#37
0]
#38
b00000000000000000000000000001100 #
b00000000000000000000000000010000 $
b00000000000001011000010100010011 %
b00000000000000000000000000000000 '
b000 (
0)
b0010011 *
0+
b01010 ,
b00000 .
b00000000000000000000000000000000 O
b00000000000000000000000000000000 P
b00000000000000000000000000000100 Q
b00000000000000000000000000010011 R
1T
1U
b00 V
b000 X
b001 Y
b0000 Z
0[
b00000000000000100 \
1]
b00000000000000000000000000000100 `
b00000000000000000000000000010000 b
#39
0]
#40
b00000000000000000000000000010000 #
b00000000000000000000000000010100 $
b00000000000101011000010110010011 %
b01011 ,
b00001 .
b00000000000000000000000000000100 9
b00000000000000000000000000000001 O
b00000000000000000000000000000001 P
b00000000000000000000000000000101 Q
b00000000000000000000000000000101 R
b00000000000000101 \
1]
b00000000000000000000000000000101 `
b00000000000000000000000000000100 a
b00000000000000000000000000010100 b
b00000000000000000000000000010001 c
#41
0]
#42
b00000000000000000000000000010100 #
b00000000000000000000000000011000 $
b11111110011001011001110011100011 %
b00000000000000000000000000000101 &
b00000000000000000000000011111111 '
b001 (
1)
b1100011 *
1+
b11001 ,
b00110 .
b00000000000000000000000000000101 :
b11111111111111111111111111111000 O
b00000000000000000000000011111111 P
b00000000000000000000000000000000 Q
b00000000000000000001001100000011 R
0T
0U
b01 V
b010 X
b100 Y
b1011 Z
1[
b00000000000000000 \
1]
b00000000000000000000000000000000 `
b00000000000000000000000000001100 b
b00000000000000000000000000001100 c
#43
0]
#44
b00000000000000000000000000001100 #
b00000000000000000000000000010000 $
b00000000000001011000010100010011 %
b00000000000000000000000000000000 '
b000 (
0)
b0010011 *
0+
b01010 ,
b00000 .
b00000000000000000000000000000000 O
b00000000000000000000000000000000 P
b00000000000000000000000000000101 Q
b00000000000000000000000000000101 R
1T
1U
b00 V
b000 X
b001 Y
b0000 Z
0[
b00000000000000101 \
1]
b00000000000000000000000000000101 `
b00000000000000000000000000010000 b
#45
0]
#46
b00000000000000000000000000010000 #
b00000000000000000000000000010100 $
b00000000000101011000010110010011 %
b01011 ,
b00001 .
b00000000000000000000000000000101 9
b00000000000000000000000000000001 O
b00000000000000000000000000000001 P
b00000000000000000000000000000110 Q
b00000000000000000000000000000000 R
b00000000000000110 \
1]
b00000000000000000000000000000110 `
b00000000000000000000000000000101 a
b00000000000000000000000000010100 b
b00000000000000000000000000010001 c
#47
0]
#48
b00000000000000000000000000010100 #
b00000000000000000000000000011000 $
b11111110011001011001110011100011 %
b00000000000000000000000000000110 &
b00000000000000000000000011111111 '
b001 (
1)
b1100011 *
1+
b11001 ,
b00110 .
b00000000000000000000000000000110 :
b11111111111111111111111111111000 O
b00000000000000000000000011111111 P
b00000000000000000000000000000000 Q
b00000000000000000001001100000011 R
0T
0U
b01 V
b010 X
b100 Y
b1011 Z
1[
b00000000000000000 \
1]
b00000000000000000000000000000000 `
b00000000000000000000000000001100 b
b00000000000000000000000000001100 c
#49
0]
#50
b00000000000000000000000000001100 #
b00000000000000000000000000010000 $
b00000000000001011000010100010011 %
b00000000000000000000000000000000 '
b000 (
0)
b0010011 *
0+
b01010 ,
b00000 .
b00000000000000000000000000000000 O
b00000000000000000000000000000000 P
b00000000000000000000000000000110 Q
b00000000000000000000000000000000 R
1T
1U
b00 V
b000 X
b001 Y
b0000 Z
0[
b00000000000000110 \
1]
b00000000000000000000000000000110 `
b00000000000000000000000000010000 b
#51
0]
#52
b00000000000000000000000000010000 #
b00000000000000000000000000010100 $
b00000000000101011000010110010011 %
b01011 ,
b00001 .
b00000000000000000000000000000110 9
b00000000000000000000000000000001 O
b00000000000000000000000000000001 P
b00000000000000000000000000000111 Q
b00000000000000111 \
1]
b00000000000000000000000000000111 `
b00000000000000000000000000000110 a
b00000000000000000000000000010100 b
b00000000000000000000000000010001 c
#53
0]
#54
b00000000000000000000000000010100 #
b00000000000000000000000000011000 $
b11111110011001011001110011100011 %
b00000000000000000000000000000111 &
b00000000000000000000000011111111 '
b001 (
1)
b1100011 *
1+
b11001 ,
b00110 .
b00000000000000000000000000000111 :
b11111111111111111111111111111000 O
b00000000000000000000000011111111 P
b00000000000000000000000000000000 Q
b00000000000000000001001100000011 R
0T
0U
b01 V
b010 X
b100 Y
b1011 Z
1[
b00000000000000000 \
1]
b00000000000000000000000000000000 `
b00000000000000000000000000001100 b
b00000000000000000000000000001100 c
#55
0]
#56
b00000000000000000000000000001100 #
b00000000000000000000000000010000 $
b00000000000001011000010100010011 %
b00000000000000000000000000000000 '
b000 (
0)
b0010011 *
0+
b01010 ,
b00000 .
b00000000000000000000000000000000 O
b00000000000000000000000000000000 P
b00000000000000000000000000000111 Q
b00000000000000000000000000000000 R
1T
1U
b00 V
b000 X
b001 Y
b0000 Z
0[
b00000000000000111 \
1]
b00000000000000000000000000000111 `
b00000000000000000000000000010000 b
#57
0]
#58
b00000000000000000000000000010000 #
b00000000000000000000000000010100 $
b00000000000101011000010110010011 %
b01011 ,
b00001 .
b00000000000000000000000000000111 9
b00000000000000000000000000000001 O
b00000000000000000000000000000001 P
b00000000000000000000000000001000 Q
b11111111111111111111111110010011 R
b00000000000001000 \
1]
b00000000000000000000000000001000 `
b00000000000000000000000000000111 a
b00000000000000000000000000010100 b
b00000000000000000000000000010001 c
#59
0]
#60
b00000000000000000000000000010100 #
b00000000000000000000000000011000 $
b11111110011001011001110011100011 %
b00000000000000000000000000001000 &
b00000000000000000000000011111111 '
b001 (
1)
b1100011 *
1+
b11001 ,
b00110 .
b00000000000000000000000000001000 :
b11111111111111111111111111111000 O
b00000000000000000000000011111111 P
b00000000000000000000000000000000 Q
b00000000000000000001001100000011 R
0T
0U
b01 V
b010 X
b100 Y
b1011 Z
1[
b00000000000000000 \
1]
b00000000000000000000000000000000 `
b00000000000000000000000000001100 b
b00000000000000000000000000001100 c
#61
0]
#62
b00000000000000000000000000001100 #
b00000000000000000000000000010000 $
b00000000000001011000010100010011 %
b00000000000000000000000000000000 '
b000 (
0)
b0010011 *
0+
b01010 ,
b00000 .
b00000000000000000000000000000000 O
b00000000000000000000000000000000 P
b00000000000000000000000000001000 Q
b11111111111111111111111110010011 R
1T
1U
b00 V
b000 X
b001 Y
b0000 Z
0[
b00000000000001000 \
1]
b00000000000000000000000000001000 `
b00000000000000000000000000010000 b
#63
0]
#64
b00000000000000000000000000010000 #
b00000000000000000000000000010100 $
b00000000000101011000010110010011 %
b01011 ,
b00001 .
b00000000000000000000000000001000 9
b00000000000000000000000000000001 O
b00000000000000000000000000000001 P
b00000000000000000000000000001001 Q
b00000000000000000000000000000101 R
b00000000000001001 \
1]
b00000000000000000000000000001001 `
b00000000000000000000000000001000 a
b00000000000000000000000000010100 b
b00000000000000000000000000010001 c
#65
0]
#66
b00000000000000000000000000010100 #
b00000000000000000000000000011000 $
b11111110011001011001110011100011 %
b00000000000000000000000000001001 &
b00000000000000000000000011111111 '
b001 (
1)
b1100011 *
1+
b11001 ,
b00110 .
b00000000000000000000000000001001 :
b11111111111111111111111111111000 O
b00000000000000000000000011111111 P
b00000000000000000000000000000000 Q
b00000000000000000001001100000011 R
0T
0U
b01 V
b010 X
b100 Y
b1011 Z
1[
b00000000000000000 \
1]
b00000000000000000000000000000000 `
b00000000000000000000000000001100 b
b00000000000000000000000000001100 c
#67
0]
#68
b00000000000000000000000000001100 #
b00000000000000000000000000010000 $
b00000000000001011000010100010011 %
b00000000000000000000000000000000 '
b000 (
0)
b0010011 *
0+
b01010 ,
b00000 .
b00000000000000000000000000000000 O
b00000000000000000000000000000000 P
b00000000000000000000000000001001 Q
b00000000000000000000000000000101 R
1T
1U
b00 V
b000 X
b001 Y
b0000 Z
0[
b00000000000001001 \
1]
b00000000000000000000000000001001 `
b00000000000000000000000000010000 b
#69
0]
#70
b00000000000000000000000000010000 #
b00000000000000000000000000010100 $
b00000000000101011000010110010011 %
b01011 ,
b00001 .
b00000000000000000000000000001001 9
b00000000000000000000000000000001 O
b00000000000000000000000000000001 P
b00000000000000000000000000001010 Q
b00000000000000000000000000000000 R
b00000000000001010 \
1]
b00000000000000000000000000001010 `
b00000000000000000000000000001001 a
b00000000000000000000000000010100 b
b00000000000000000000000000010001 c
#71
0]
#72
b00000000000000000000000000010100 #
b00000000000000000000000000011000 $
b11111110011001011001110011100011 %
b00000000000000000000000000001010 &
b00000000000000000000000011111111 '
b001 (
1)
b1100011 *
1+
b11001 ,
b00110 .
b00000000000000000000000000001010 :
b11111111111111111111111111111000 O
b00000000000000000000000011111111 P
b00000000000000000000000000000000 Q
b00000000000000000001001100000011 R
0T
0U
b01 V
b010 X
b100 Y
b1011 Z
1[
b00000000000000000 \
1]
b00000000000000000000000000000000 `
b00000000000000000000000000001100 b
b00000000000000000000000000001100 c
#73
0]
#74
b00000000000000000000000000001100 #
b00000000000000000000000000010000 $
b00000000000001011000010100010011 %
b00000000000000000000000000000000 '
b000 (
0)
b0010011 *
0+
b01010 ,
b00000 .
b00000000000000000000000000000000 O
b00000000000000000000000000000000 P
b00000000000000000000000000001010 Q
b00000000000000000000000000000000 R
1T
1U
b00 V
b000 X
b001 Y
b0000 Z
0[
b00000000000001010 \
1]
b00000000000000000000000000001010 `
b00000000000000000000000000010000 b
#75
0]
#76
b00000000000000000000000000010000 #
b00000000000000000000000000010100 $
b00000000000101011000010110010011 %
b01011 ,
b00001 .
b00000000000000000000000000001010 9
b00000000000000000000000000000001 O
b00000000000000000000000000000001 P
b00000000000000000000000000001011 Q
b00000000000001011 \
1]
b00000000000000000000000000001011 `
b00000000000000000000000000001010 a
b00000000000000000000000000010100 b
b00000000000000000000000000010001 c
#77
0]
#78
b00000000000000000000000000010100 #
b00000000000000000000000000011000 $
b11111110011001011001110011100011 %
b00000000000000000000000000001011 &
b00000000000000000000000011111111 '
b001 (
1)
b1100011 *
1+
b11001 ,
b00110 .
b00000000000000000000000000001011 :
b11111111111111111111111111111000 O
b00000000000000000000000011111111 P
b00000000000000000000000000000000 Q
b00000000000000000001001100000011 R
0T
0U
b01 V
b010 X
b100 Y
b1011 Z
1[
b00000000000000000 \
1]
b00000000000000000000000000000000 `
b00000000000000000000000000001100 b
b00000000000000000000000000001100 c
#79
0]
#80
b00000000000000000000000000001100 #
b00000000000000000000000000010000 $
b00000000000001011000010100010011 %
b00000000000000000000000000000000 '
b000 (
0)
b0010011 *
0+
b01010 ,
b00000 .
b00000000000000000000000000000000 O
b00000000000000000000000000000000 P
b00000000000000000000000000001011 Q
b00000000000000000000000000000000 R
1T
1U
b00 V
b000 X
b001 Y
b0000 Z
0[
b00000000000001011 \
1]
b00000000000000000000000000001011 `
b00000000000000000000000000010000 b
#81
0]
#82
b00000000000000000000000000010000 #
b00000000000000000000000000010100 $
b00000000000101011000010110010011 %
b01011 ,
b00001 .
b00000000000000000000000000001011 9
b00000000000000000000000000000001 O
b00000000000000000000000000000001 P
b00000000000000000000000000001100 Q
b00000000000000000000000000010011 R
b00000000000001100 \
1]
b00000000000000000000000000001100 `
b00000000000000000000000000001011 a
b00000000000000000000000000010100 b
b00000000000000000000000000010001 c
#83
0]
#84
b00000000000000000000000000010100 #
b00000000000000000000000000011000 $
b11111110011001011001110011100011 %
b00000000000000000000000000001100 &
b00000000000000000000000011111111 '
b001 (
1)
b1100011 *
1+
b11001 ,
b00110 .
b00000000000000000000000000001100 :
b11111111111111111111111111111000 O
b00000000000000000000000011111111 P
b00000000000000000000000000000000 Q
b00000000000000000001001100000011 R
0T
0U
b01 V
b010 X
b100 Y
b1011 Z
1[
b00000000000000000 \
1]
b00000000000000000000000000000000 `
b00000000000000000000000000001100 b
b00000000000000000000000000001100 c
#85
0]
#86
b00000000000000000000000000001100 #
b00000000000000000000000000010000 $
b00000000000001011000010100010011 %
b00000000000000000000000000000000 '
b000 (
0)
b0010011 *
0+
b01010 ,
b00000 .
b00000000000000000000000000000000 O
b00000000000000000000000000000000 P
b00000000000000000000000000001100 Q
b00000000000000000000000000010011 R
1T
1U
b00 V
b000 X
b001 Y
b0000 Z
0[
b00000000000001100 \
1]
b00000000000000000000000000001100 `
b00000000000000000000000000010000 b
#87
0]
#88
b00000000000000000000000000010000 #
b00000000000000000000000000010100 $
b00000000000101011000010110010011 %
b01011 ,
b00001 .
b00000000000000000000000000001100 9
b00000000000000000000000000000001 O
b00000000000000000000000000000001 P
b00000000000000000000000000001101 Q
b11111111111111111111111110000101 R
b00000000000001101 \
1]
b00000000000000000000000000001101 `
b00000000000000000000000000001100 a
b00000000000000000000000000010100 b
b00000000000000000000000000010001 c
#89
0]
#90
b00000000000000000000000000010100 #
b00000000000000000000000000011000 $
b11111110011001011001110011100011 %
b00000000000000000000000000001101 &
b00000000000000000000000011111111 '
b001 (
1)
b1100011 *
1+
b11001 ,
b00110 .
b00000000000000000000000000001101 :
b11111111111111111111111111111000 O
b00000000000000000000000011111111 P
b00000000000000000000000000000000 Q
b00000000000000000001001100000011 R
0T
0U
b01 V
b010 X
b100 Y
b1011 Z
1[
b00000000000000000 \
1]
b00000000000000000000000000000000 `
b00000000000000000000000000001100 b
b00000000000000000000000000001100 c
#91
0]
#92
b00000000000000000000000000001100 #
b00000000000000000000000000010000 $
b00000000000001011000010100010011 %
b00000000000000000000000000000000 '
b000 (
0)
b0010011 *
0+
b01010 ,
b00000 .
b00000000000000000000000000000000 O
b00000000000000000000000000000000 P
b00000000000000000000000000001101 Q
b11111111111111111111111110000101 R
1T
1U
b00 V
b000 X
b001 Y
b0000 Z
0[
b00000000000001101 \
1]
b00000000000000000000000000001101 `
b00000000000000000000000000010000 b
#93
0]
#94
b00000000000000000000000000010000 #
b00000000000000000000000000010100 $
b00000000000101011000010110010011 %
b01011 ,
b00001 .
b00000000000000000000000000001101 9
b00000000000000000000000000000001 O
b00000000000000000000000000000001 P
b00000000000000000000000000001110 Q
b00000000000000000000000000000101 R
b00000000000001110 \
1]
b00000000000000000000000000001110 `
b00000000000000000000000000001101 a
b00000000000000000000000000010100 b
b00000000000000000000000000010001 c
#95
0]
