single-cycle_RISC-V/Ymain.vcd
$version Generated by VerilatedVcd $end
$timescale 1ps $end
 $scope module TOP $end
  $var wire 1 f clk $end
  $var wire 1 g rst $end
  $var wire 32 h A0 [31:0] $end
  $scope module Main $end
   $var wire 32 i WAD [31:0] $end
   $var wire 32 j W [31:0] $end
   $var wire 1 f clk $end
   $var wire 1 g rst $end
   $var wire 32 h A0 [31:0] $end
   $var wire 32 # PC [31:0] $end
   $var wire 32 $ PCN [31:0] $end
   $var wire 32 % PCadd4 [31:0] $end
   $var wire 32 & PCaddIMM [31:0] $end
   $var wire 32 ' instr [31:0] $end
   $var wire 32 ( DOutReg1 [31:0] $end
   $var wire 32 ) DOutReg2 [31:0] $end
   $var wire 32 * IMM [31:0] $end
   $var wire 32 k N1 [31:0] $end
   $var wire 32 + N2 [31:0] $end
   $var wire 32 , DOutAlu [31:0] $end
   $var wire 32 l AdDM [31:0] $end
   $var wire 32 m DInDM [31:0] $end
   $var wire 32 - DOutDM [31:0] $end
   $var wire 32 . DInReg [31:0] $end
   $var wire 2 / PCsrc [1:0] $end
   $var wire 1 0 ALUsrc $end
   $var wire 2 1 ResultSrc [1:0] $end
   $var wire 3 2 IMMctrl [2:0] $end
   $var wire 2 3 ALUop [1:0] $end
   $var wire 4 4 ALUctrl [3:0] $end
   $var wire 1 5 flag $end
   $var wire 1 6 DMwrite $end
   $var wire 1 7 RegWrite $end
   $scope module A1 $end
    $var wire 32 j W [31:0] $end
    $var wire 4 4 ALUctrl [3:0] $end
    $var wire 32 ( N1 [31:0] $end
    $var wire 32 + N2 [31:0] $end
    $var wire 32 , DOutAlu [31:0] $end
    $var wire 1 5 flag $end
    $var wire 1 8 flagZ $end
    $var wire 1 9 flagC $end
    $var wire 1 : flagS $end
    $var wire 1 ; flagV $end
   $upscope $end
   $scope module A2 $end
    $var wire 32 j W [31:0] $end
    $var wire 32 # PC [31:0] $end
    $var wire 32 * IMM [31:0] $end
    $var wire 32 & PCaddIMM [31:0] $end
   $upscope $end
   $scope module A3 $end
    $var wire 32 j W [31:0] $end
    $var wire 32 # PC [31:0] $end
    $var wire 32 % PCadd4 [31:0] $end
   $upscope $end
   $scope module C1 $end
    $var wire 3 < func3 [2:0] $end
    $var wire 2 3 ALUop [1:0] $end
    $var wire 1 = func75 $end
    $var wire 1 > op5 $end
    $var wire 4 4 ALUctrl [3:0] $end
   $upscope $end
   $scope module C2 $end
    $var wire 7 ? Opcode [6:0] $end
    $var wire 1 5 flag $end
    $var wire 1 7 RegWrite $end
    $var wire 1 6 DMwrite $end
    $var wire 2 3 ALUop [1:0] $end
    $var wire 1 0 ALUsrc $end
    $var wire 3 2 IMMctrl [2:0] $end
    $var wire 2 / PCsrc [1:0] $end
    $var wire 2 1 ResultSrc [1:0] $end
   $upscope $end
   $scope module E1 $end
    $var wire 32 j W [31:0] $end
    $var wire 3 2 IMMctrl [2:0] $end
    $var wire 32 ' instr [31:0] $end
    $var wire 32 * IMM [31:0] $end
   $upscope $end
   $scope module M1 $end
    $var wire 32 j WA [31:0] $end
    $var wire 32 n WAM [31:0] $end
    $var wire 32 o WB [31:0] $end
    $var wire 32 j WD [31:0] $end
    $var wire 1 f clk $end
    $var wire 32 , AdDM [31:0] $end
    $var wire 1 6 DMwrite $end
    $var wire 3 < func3 [2:0] $end
    $var wire 32 ) DInDM [31:0] $end
    $var wire 32 - DOutDM [31:0] $end
    $var wire 20 @ Ad [19:0] $end
    $var wire 32 A show [31:0] $end
   $upscope $end
   $scope module M2 $end
    $var wire 32 j WD [31:0] $end
    $var wire 32 p WAD [31:0] $end
    $var wire 32 o WB [31:0] $end
    $var wire 32 # PC [31:0] $end
    $var wire 32 ' instr [31:0] $end
    $var wire 16 B AInIM [15:0] $end
   $upscope $end
   $scope module M3 $end
    $var wire 32 j W [31:0] $end
    $var wire 1 f clk $end
    $var wire 1 g rst $end
    $var wire 32 $ PCN [31:0] $end
    $var wire 32 # PC [31:0] $end
   $upscope $end
   $scope module M4 $end
    $var wire 32 i WAD [31:0] $end
    $var wire 32 j WD [31:0] $end
    $var wire 32 q R0 [31:0] $end
    $var wire 1 f clk $end
    $var wire 1 7 RegWrite $end
    $var wire 5 C AdInReg [4:0] $end
    $var wire 5 D AdOutReg1 [4:0] $end
    $var wire 5 E AdOutReg2 [4:0] $end
    $var wire 1 r trigger $end
    $var wire 32 . DInReg [31:0] $end
    $var wire 32 ( DOutReg1 [31:0] $end
    $var wire 32 ) DOutReg2 [31:0] $end
    $var wire 32 h A0 [31:0] $end
    $var wire 32 F RegArray[0] [31:0] $end
    $var wire 32 G RegArray[1] [31:0] $end
    $var wire 32 H RegArray[2] [31:0] $end
    $var wire 32 I RegArray[3] [31:0] $end
    $var wire 32 J RegArray[4] [31:0] $end
    $var wire 32 K RegArray[5] [31:0] $end
    $var wire 32 L RegArray[6] [31:0] $end
    $var wire 32 M RegArray[7] [31:0] $end
    $var wire 32 N RegArray[8] [31:0] $end
    $var wire 32 O RegArray[9] [31:0] $end
    $var wire 32 P RegArray[10] [31:0] $end
    $var wire 32 Q RegArray[11] [31:0] $end
    $var wire 32 R RegArray[12] [31:0] $end
    $var wire 32 S RegArray[13] [31:0] $end
    $var wire 32 T RegArray[14] [31:0] $end
    $var wire 32 U RegArray[15] [31:0] $end
    $var wire 32 V RegArray[16] [31:0] $end
    $var wire 32 W RegArray[17] [31:0] $end
    $var wire 32 X RegArray[18] [31:0] $end
    $var wire 32 Y RegArray[19] [31:0] $end
    $var wire 32 Z RegArray[20] [31:0] $end
    $var wire 32 [ RegArray[21] [31:0] $end
    $var wire 32 \ RegArray[22] [31:0] $end
    $var wire 32 ] RegArray[23] [31:0] $end
    $var wire 32 ^ RegArray[24] [31:0] $end
    $var wire 32 _ RegArray[25] [31:0] $end
    $var wire 32 ` RegArray[26] [31:0] $end
    $var wire 32 a RegArray[27] [31:0] $end
    $var wire 32 b RegArray[28] [31:0] $end
    $var wire 32 c RegArray[29] [31:0] $end
    $var wire 32 d RegArray[30] [31:0] $end
    $var wire 32 e RegArray[31] [31:0] $end
   $upscope $end
   $scope module S1 $end
    $var wire 32 j W [31:0] $end
    $var wire 32 ) DOutReg2 [31:0] $end
    $var wire 32 * IMM [31:0] $end
    $var wire 1 0 ALUsrc $end
    $var wire 32 + N2 [31:0] $end
   $upscope $end
   $scope module S2 $end
    $var wire 32 j W [31:0] $end
    $var wire 32 % PCadd4 [31:0] $end
    $var wire 32 & PCaddIMM [31:0] $end
    $var wire 32 , DOutAlu [31:0] $end
    $var wire 2 / PCsrc [1:0] $end
    $var wire 32 $ PCN [31:0] $end
   $upscope $end
   $scope module S3 $end
    $var wire 32 j W [31:0] $end
    $var wire 32 , DOutAlu [31:0] $end
    $var wire 32 - DOutDM [31:0] $end
    $var wire 32 % PCadd4 [31:0] $end
    $var wire 32 & PCaddIMM [31:0] $end
    $var wire 2 1 ResultSrc [1:0] $end
    $var wire 32 . DInReg [31:0] $end
   $upscope $end
  $upscope $end
 $upscope $end
$enddefinitions $end


#0
b00000000000000000000000000000000 #
b00000000000000000000000000000100 $
b00000000000000000000000000000100 %
b00000000000000000000000000000000 &
b00000000000000000000000000000000 '
b00000000000000000000000000000000 (
b00000000000000000000000000000000 )
b00000000000000000000000000000000 *
b00000000000000000000000000000000 +
b00000000000000000000000000000000 ,
b00000000000000000000000000000000 -
b00000000000000000000000000000000 .
b00 /
00
b00 1
b000 2
b00 3
b0000 4
05
06
07
08
09
0:
0;
b000 <
0=
0>
b0000000 ?
b00000000000000000000 @
b00000000000000000000000000000000 A
b0000000000000000 B
b00000 C
b00000 D
b00000 E
b00000000000000000000000000000000 F
b00000000000000000000000000000000 G
b00000000000000000000000000000000 H
b00000000000000000000000000000000 I
b00000000000000000000000000000000 J
b00000000000000000000000000000000 K
b00000000000000000000000000000000 L
b00000000000000000000000000000000 M
b00000000000000000000000000000000 N
b00000000000000000000000000000000 O
b00000000000000000000000000000000 P
b00000000000000000000000000000000 Q
b00000000000000000000000000000000 R
b00000000000000000000000000000000 S
b00000000000000000000000000000000 T
b00000000000000000000000000000000 U
b00000000000000000000000000000000 V
b00000000000000000000000000000000 W
b00000000000000000000000000000000 X
b00000000000000000000000000000000 Y
b00000000000000000000000000000000 Z
b00000000000000000000000000000000 [
b00000000000000000000000000000000 \
b00000000000000000000000000000000 ]
b00000000000000000000000000000000 ^
b00000000000000000000000000000000 _
b00000000000000000000000000000000 `
b00000000000000000000000000000000 a
b00000000000000000000000000000000 b
b00000000000000000000000000000000 c
b00000000000000000000000000000000 d
b00000000000000000000000000000000 e
0f
0g
b00000000000000000000000000000000 h
b00000000000000000000000000000101 i
b00000000000000000000000000100000 j
b00000000000000000000000000000000 k
b00000000000000000000000000000000 l
b00000000000000000000000000000000 m
b00000000000000000000000000010100 n
b00000000000000000000000000001000 o
b00000000000000000000000000010000 p
b00000000000000000000000000001010 q
0r
#1
b00000000000000000000000011111100 &
b00001111110000000000011000010011 '
b00000000000000000000000011111100 *
b00000000000000000000000011111100 +
b00000000000000000000000011111100 ,
b00000000000000000000000011111100 .
10
b10 3
17
b0010011 ?
b00000000000011111100 @
b01010101010000100100111100111100 A
b01100 C
b11100 E
1f
#2
0f
#3
b00000000000000000000000000000100 #
b00000000000000000000000000001000 $
b00000000000000000000000000001000 %
b11111110100011110010000000000100 &
b11111110100011110010011010110111 '
b11111110100011110010000000000000 *
b11111110100011110010000000000000 +
b11111110100011110010000000000000 ,
b11111110100011110010000000000000 .
b011 2
b11 3
b0001 4
1:
1;
b010 <
1=
1>
b0110111 ?
b11110010000000000000 @
b0000000000000100 B
b01101 C
b11110 D
b01000 E
b00000000000000000000000011111100 R
1f
#4
0f
#5
b00000000000000000000000000001000 #
b00000000000000000000000000001100 $
b00000000000000000000000000001100 %
b00000000000000000000010100111111 &
b01010011011101101000011010011011 '
b11111110100011110010000000000000 (
b00000000000000000000010100110111 *
b00000000000000000000010100110111 +
b11111110100011110010010100110111 ,
b11111110100011110010010100110111 .
b000 2
b00 3
b0000 4
0;
b000 <
0>
b0011011 ?
b11110010010100110111 @
b0000000000001000 B
b01101 D
b10111 E
b11111110100011110010000000000000 S
1f
#6
0f
#7
b00000000000000000000000000001100 #
b00000000000000000000000000010000 $
b00000000000000000000000000010000 %
b00000000000000010100000000001100 &
b00000000000000010100011100110111 '
b00000000000000000000000000000000 (
b00000000000000010100000000000000 *
b00000000000000010100000000000000 +
b00000000000000010100000000000000 ,
b00000000000000000000000001110011 -
b00000000000000010100000000000000 .
b011 2
b11 3
b0001 4
0:
b100 <
0=
1>
b0110111 ?
b00010100000000000000 @
b0000000000001100 B
b01110 C
b00010 D
b00000 E
b11111110100011110010010100110111 S
1f
#8
0f
#9
b00000000000000000000000000010000 #
b00000000000000000000000000010100 $
b00000000000000000000000000010100 %
b00000000000000000000001100011100 &
b00110000110001110000011100011011 '
b00000000000000010100000000000000 (
b00000000000000000000000011111100 )
b00000000000000000000001100001100 *
b00000000000000000000001100001100 +
b00000000000000010100001100001100 ,
b00000000000000000000000000111101 -
b00000000000000010100001100001100 .
b000 2
b00 3
b0000 4
b000 <
0>
b0011011 ?
b00010100001100001100 @
b0000000000010000 B
b01110 D
b01100 E
b00000000000000010100000000000000 T
1f
#10
0f
#11
b00000000000000000000000000010100 #
b00000000000000000000000000110000 $
b00000000000000000000000000011000 %
b00000000000000000000000000110000 &
b00000001110000000000000011101111 '
b00000000000000000000000000000000 (
b00000000000000000000000000000000 )
b00000000000000000000000000011100 *
b00000000000000000000000000000000 +
b00000000000000000000000000000000 ,
b00000000000000000000000000000000 -
b00000000000000000000000000011000 .
b01 /
00
b10 1
b100 2
18
1>
b1101111 ?
b00000000000000000000 @
b0000000000010100 B
b00001 C
b00000 D
b11100 E
b00000000000000010100001100001100 T
1f
#12
0f
#13
b00000000000000000000000000110000 #
b00000000000000000000000000110100 $
b00000000000000000000000000110100 %
b00000000000000000000000000111110 &
b00000000111001101110001100110011 '
b11111110100011110010010100110111 (
b00000000000000010100001100001100 )
b00000000000000000000000000001110 *
b00000000000000010100001100001100 +
b11111110100011110110011100111111 ,
b11111110100011110110011100111111 .
b00 /
b00 1
b000 2
b10 3
b0011 4
08
1:
b110 <
b0110011 ?
b11110110011100111111 @
b0000000000110000 B
b00110 C
b01101 D
b01110 E
b00000000000000000000000000011000 G
1f
#14
0f
#15
b00000000000000000000000000110100 #
b00000000000000000000000000111000 $
b00000000000000000000000000111000 %
b00000000000000000000000001000000 &
b00000000110000110000001100110011 '
b11111110100011110110011100111111 (
b00000000000000000000000011111100 )
b00000000000000000000000000001100 *
b00000000000000000000000011111100 +
b11111110100011110110100000111011 ,
b11111110100011110110100000111011 .
b0000 4
b000 <
b11110110100000111011 @
b0000000000110100 B
b00110 D
b01100 E
b11111110100011110110011100111111 L
1f
#16
0f
#17
b00000000000000000000000000111000 #
b00000000000000000000000000111100 $
b00000000000000000000000000111100 %
b00000000000000000000010001000100 &
b01000000110000110000001100110011 '
b11111110100011110110100000111011 (
b00000000000000000000010000001100 *
b11111110100011110110011100111111 ,
b11111110100011110110011100111111 .
b1010 4
19
1=
b11110110011100111111 @
b0000000000111000 B
b11111110100011110110100000111011 L
1f
#18
0f
#19
b00000000000000000000000000111100 #
b00000000000000000000000001000000 $
b00000000000000000000000001000000 %
b00000000000000000000000001000010 &
b00000000011001101111001100110011 '
b11111110100011110010010100110111 (
b11111110100011110110011100111111 )
b00000000000000000000000000000110 *
b11111110100011110110011100111111 +
b11111110100011110010010100110111 ,
b11111110100011110010010100110111 .
b0010 4
b111 <
0=
b11110010010100110111 @
b0000000000111100 B
b01101 D
b00110 E
b11111110100011110110011100111111 L
1f
#20
0f
#21
b00000000000000000000000001000000 #
b00000000000000000000000001000100 $
b00000000000000000000000001000100 %
b00000000000000000000000001000110 &
b00000000011001110100001100110011 '
b00000000000000010100001100001100 (
b11111110100011110010010100110111 )
b11111110100011110010010100110111 +
b11111110100011100110011000111011 ,
b11111110100011100110011000111011 .
b0100 4
1;
b100 <
b11100110011000111011 @
b0000000001000000 B
b01110 D
b11111110100011110010010100110111 L
1f
#22
0f
#23
b00000000000000000000000001000100 #
b00000000000000000000000001001000 $
b00000000000000000000000001001000 %
b00000000000000000000000001001010 &
b00000000011000111000001110110011 '
b00000000000000000000000000000000 (
b11111110100011100110011000111011 )
b11111110100011100110011000111011 +
b0000 4
b000 <
b0000000001000100 B
b00111 C
b00111 D
b11111110100011100110011000111011 L
1f
#24
0f
#25
b00000000000000000000000001001000 #
b00000000000000000000000001001100 $
b00000000000000000000000001001100 %
b00000000001000111101001110010011 '
b11111110100011100110011000111011 (
b00000000000000000000000000000000 )
b00000000000000000000000000000010 *
b00000000000000000000000000000010 +
b00111111101000111001100110001110 ,
b00111111101000111001100110001110 .
10
b0110 4
0:
b101 <
0>
b0010011 ?
b00111001100110001110 @
b0000000001001000 B
b00010 E
b11111110100011100110011000111011 M
1f
#26
0f
#27
b00000000000000000000000001001100 #
b00000000000000000000000001010000 $
b00000000000000000000000001010000 %
b00000000000000000000000001001111 &
b00000000001100111001001110010011 '
b00111111101000111001100110001110 (
b00000000000000000000000000000011 *
b00000000000000000000000000000011 +
b11111101000111001100110001110000 ,
b11111101000111001100110001110000 .
b0101 4
1:
0;
b001 <
b11001100110001110000 @
b0000000001001100 B
b00011 E
b00111111101000111001100110001110 M
1f
#28
0f
#29
b00000000000000000000000001010000 #
b00000000000000000000000001010100 $
b00000000000000000000000001010100 %
b00000000000000000000010001010010 &
b01000000001000110101001100010011 '
b11111110100011100110011000111011 (
b00000000000000000000010000000010 *
b00000000000000000000010000000010 +
b11111111101000111001100110001110 ,
b11111111101000111001100110001110 .
b0111 4
b101 <
1=
b00111001100110001110 @
b0000000001010000 B
b00110 C
b00110 D
b00010 E
b11111101000111001100110001110000 M
1f
#30
0f
#31
b00000000000000000000000001010100 #
b00000000000000000000000001011000 $
b00000000000000000000000001011000 %
b00000000000000000000000001011011 &
b00000000011100110111001100110011 '
b11111111101000111001100110001110 (
b11111101000111001100110001110000 )
b00000000000000000000000000000111 *
b11111101000111001100110001110000 +
b11111101000000001000100000000000 ,
b11111101000000001000100000000000 .
00
b0010 4
b111 <
0=
1>
b0110011 ?
b00001000100000000000 @
b0000000001010100 B
b00111 E
b11111111101000111001100110001110 L
1f
#32
0f
#33
b00000000000000000000000001011000 #
b00000000000000000000000001011100 $
b00000000000000000000000001011100 %
b00000000000011111101000001011000 &
b00000000000011111101111000110111 '
b00000000000000000000000000000000 (
b00000000000000000000000000000000 )
b00000000000011111101000000000000 *
b00000000000011111101000000000000 +
b00000000000011111101000000000000 ,
b00000000000011111101000000000000 .
10
b011 2
b11 3
b0001 4
0:
b101 <
b0110111 ?
b11111101000000000000 @
b0000000001011000 B
b11100 C
b11111 D
b00000 E
b11111101000000001000100000000000 L
1f
#34
0f
#35
b00000000000000000000000001011100 #
b00000000000000000000000001100000 $
b00000000000000000000000001100000 %
b00000000000000000000000001100101 &
b00000000100111100000111000011011 '
b00000000000011111101000000000000 (
b00000000000000000000000000001001 *
b00000000000000000000000000001001 +
b00000000000011111101000000001001 ,
b00000000000011111101000000001001 .
b000 2
b00 3
b0000 4
b000 <
0>
b0011011 ?
b11111101000000001001 @
b0000000001011100 B
b11100 D
b01001 E
b00000000000011111101000000000000 b
1f
#36
0f
#37
b00000000000000000000000001100000 #
b00000000000000000000000001100100 $
b00000000000000000000000001100100 %
b00000000000000000000000001101100 &
b00000000110011100001111000010011 '
b00000000000011111101000000001001 (
b00000000000000000000000011111100 )
b00000000000000000000000000001100 *
b00000000000000000000000000001100 +
b11111101000000001001000000000000 ,
b11111101000000001001000000000000 .
b10 3
b0101 4
1:
b001 <
b0010011 ?
b00001001000000000000 @
b0000000001100000 B
b01100 E
b00000000000011111101000000001001 b
1f
#38
0f
#39
b00000000000000000000000001100100 #
b00000000000000000000000001101000 $
b00000000000000000000000001101000 %
b11111111111111111111100001100100 &
b10000000000011100000111000010011 '
b11111101000000001001000000000000 (
b00000000000000000000000000000000 )
b11111111111111111111100000000000 *
b11111111111111111111100000000000 +
b11111101000000001000100000000000 ,
b11111101000000001000100000000000 .
b0000 4
b000 <
b00001000100000000000 @
b0000000001100100 B
b00000 E
b11111101000000001001000000000000 b
1f
#40
0f
#41
b00000000000000000000000001101000 #
b00000000000000000000000001101100 $
b00000000000000000000000001101100 %
b00000000000000000000000100100000 &
b00001011110000110001110001100011 '
b11111101000000001000100000000000 (
b11111101000000001000100000000000 )
b00000000000000000000000010111000 *
b11111101000000001000100000000000 +
b00000000000000000000000000000000 ,
b00000000000000000000000000000000 .
00
b010 2
b01 3
b1001 4
07
18
0:
b001 <
1>
b1100011 ?
b00000000000000000000 @
b0000000001101000 B
b11000 C
b00110 D
b11100 E
b11111101000000001000100000000000 b
1f
#42
0f
#43
b00000000000000000000000001101100 #
b00000000000000000000000001110000 $
b00000000000000000000000001110000 %
b00000000000000000000000001111010 &
b00000000111001101010111000110011 '
b11111110100011110010010100110111 (
b00000000000000010100001100001100 )
b00000000000000000000000000001110 *
b00000000000000010100001100001100 +
b00000000000000000000000000000001 ,
b00000000000000000000000000000001 .
b000 2
b10 3
b1100 4
15
17
08
1:
b010 <
b0110011 ?
b00000000000000000001 @
b0000000001101100 B
b11100 C
b01101 D
b01110 E
1f
#44
0f
#45
b00000000000000000000000001110000 #
b00000000000000000000000001110100 $
b00000000000000000000000001110100 %
b00000000000000000000000001111110 &
b00000000111001101011111010110011 '
b00000000000000000000000000000000 ,
b00000000000000000000000000000000 .
b1110 4
05
b011 <
b00000000000000000000 @
b0000000001110000 B
b11101 C
b00000000000000000000000000000001 b
1f
#46
0f
#47
b00000000000000000000000001110100 #
b00000000000000000000000001111000 $
b00000000000000000000000001111000 %
b00000000000000000000000100011100 &
b00001011110011101101010001100011 '
b00000000000000000000000000000000 (
b00000000000000000000000000000001 )
b00000000000000000000000010101000 *
b00000000000000000000000000000001 +
b11111111111111111111111111111111 ,
b11111111111111111111111111111111 .
b010 2
b01 3
b1101 4
07
09
b101 <
b1100011 ?
b11111111111111111111 @
b0000000001110100 B
b01000 C
b11101 D
b11100 E
1f
#48
0f
#49
b00000000000000000000000001111000 #
b00000000000000000000000000011000 $
b00000000000000000000000001111100 %
b00000000000000000000000001111000 &
b00000000000000001000000001100111 '
b00000000000000000000000000011000 (
b00000000000000000000000000000000 )
b00000000000000000000000000000000 *
b00000000000000000000000000000000 +
b00000000000000000000000000011000 ,
b00000000000000000000000000011000 .
b10 /
10
b000 2
b00 3
b0000 4
17
0:
b000 <
b1100111 ?
b00000000000000011000 @
b0000000001111000 B
b00000 C
b00001 D
b00000 E
1f
#50
0f
#51
b00000000000000000000000000011000 #
b00000000000000000000000010000000 $
b00000000000000000000000000011100 %
b00000000000000000000000010000000 &
b00000110100000000000000011101111 '
b00000000000000000000000000000000 (
b00000000000000000000000001101000 *
b00000000000000000000000000000000 ,
b00000000000000000000000000011100 .
b01 /
00
b10 1
b100 2
18
b1101111 ?
b00000000000000000000 @
b0000000000011000 B
b00001 C
b00000 D
b01000 E
1f
#52
0f
#53
b00000000000000000000000010000000 #
b00000000000000000000000010000100 $
b00000000000000000000000010000100 %
b00000000000000000000000010001000 &
b00000000110001110010010000100011 '
b00000000000000010100001100001100 (
b00000000000000000000000011111100 )
b00000000000000000000000000001000 *
b00000000000000000000000000001000 +
b00000000000000010100001100010100 ,
b01000111001011011000101000110010 -
b00000000000000010100001100010100 .
b00 /
10
b00 1
b001 2
16
07
08
b010 <
b0100011 ?
b00010100001100010100 @
b0000000010000000 B
b01000 C
b01110 D
b01100 E
b00000000000000000000000000011100 G
1f
#54
0f
#55
b00000000000000000000000010000100 #
b00000000000000000000000010001000 $
b00000000000000000000000010001000 %
b00000000000000000000000010001100 &
b00000000110001110001010000100011 '
b00000000000000000000000000000000 -
b001 <
b0000000010000100 B
1f
#56
0f
#57
b00000000000000000000000010001000 #
b00000000000000000000000010001100 $
b00000000000000000000000010001100 %
b00000000000000000000000010010000 &
b00000000110001110000010000100011 '
b000 <
b0000000010001000 B
1f
#58
0f
#59
b00000000000000000000000010001100 #
b00000000000000000000000010010000 $
b00000000000000000000000010010000 %
b00000000000000000000000010010100 &
b00000000100001110010001100000011 '
b00000000000000000000000000000000 )
b11111100111111000000000011111100 -
b11111100111111000000000011111100 .
b01 1
b000 2
06
17
b010 <
0>
b0000011 ?
b0000000010001100 B
b00110 C
b01000 E
1f
#60
0f
#61
b00000000000000000000000010010000 #
b00000000000000000000000010010100 $
b00000000000000000000000010010100 %
b00000000000000000000000010011000 &
b00000000100001110001001110000011 '
b11111111111111111111110011111100 -
b11111111111111111111110011111100 .
b001 <
b0000000010010000 B
b00111 C
b11111100111111000000000011111100 L
1f
#62
0f
#63
b00000000000000000000000010010100 #
b00000000000000000000000010011000 $
b00000000000000000000000010011000 %
b00000000000000000000000010011010 &
b00000000011000111000001100110011 '
b11111111111111111111110011111100 (
b11111100111111000000000011111100 )
b00000000000000000000000000000110 *
b11111100111111000000000011111100 +
b11111100111110111111110111111000 ,
b00000000000000000000000000000000 -
b11111100111110111111110111111000 .
00
b00 1
b10 3
1:
b000 <
1>
b0110011 ?
b10111111110111111000 @
b0000000010010100 B
b00110 C
b00111 D
b00110 E
b11111111111111111111110011111100 M
1f
#64
0f
#65
b00000000000000000000000010011000 #
b00000000000000000000000010011100 $
b00000000000000000000000010011100 %
b00000000000000000000000010100000 &
b00000000100001110000001110000011 '
b00000000000000010100001100001100 (
b00000000000000000000000000000000 )
b00000000000000000000000000001000 *
b00000000000000000000000000001000 +
b00000000000000010100001100010100 ,
b11111111111111111111111111111100 -
b11111111111111111111111111111100 .
10
b01 1
b00 3
0:
0>
b0000011 ?
b00010100001100010100 @
b0000000010011000 B
b00111 C
b01110 D
b01000 E
b11111100111110111111110111111000 L
1f
#66
0f
#67
b00000000000000000000000010011100 #
b00000000000000000000000010100000 $
b00000000000000000000000010100000 %
b00000000000000000000000010100010 &
b00000000011000111000001100110011 '
b11111111111111111111111111111100 (
b11111100111110111111110111111000 )
b00000000000000000000000000000110 *
b11111100111110111111110111111000 +
b11111100111110111111110111110100 ,
b00000000000000000000000000000000 -
b11111100111110111111110111110100 .
00
b00 1
b10 3
1:
1>
b0110011 ?
b10111111110111110100 @
b0000000010011100 B
b00110 C
b00111 D
b00110 E
b11111111111111111111111111111100 M
1f
#68
0f
#69
b00000000000000000000000010100000 #
b00000000000000000000000010100100 $
b00000000000000000000000010100100 %
b00000000000000000000000010101000 &
b00000000100001110101001110000011 '
b00000000000000010100001100001100 (
b00000000000000000000000000000000 )
b00000000000000000000000000001000 *
b00000000000000000000000000001000 +
b00000000000000010100001100010100 ,
b00000000000000001111110011111100 -
b00000000000000001111110011111100 .
10
b01 1
b00 3
0:
b101 <
0>
b0000011 ?
b00010100001100010100 @
b0000000010100000 B
b00111 C
b01110 D
b01000 E
b11111100111110111111110111110100 L
1f
#70
0f
#71
b00000000000000000000000010100100 #
b00000000000000000000000010101000 $
b00000000000000000000000010101000 %
b00000000000000000000000010101010 &
b00000000011000111000001100110011 '
b00000000000000001111110011111100 (
b11111100111110111111110111110100 )
b00000000000000000000000000000110 *
b11111100111110111111110111110100 +
b11111100111111001111101011110000 ,
b00000000000000000000000000000000 -
b11111100111111001111101011110000 .
00
b00 1
b10 3
1:
1;
b000 <
1>
b0110011 ?
b11001111101011110000 @
b0000000010100100 B
b00110 C
b00111 D
b00110 E
b00000000000000001111110011111100 M
1f
#72
0f
#73
b00000000000000000000000010101000 #
b00000000000000000000000010101100 $
b00000000000000000000000010101100 %
b00000000000000000000000010110000 &
b00000000100001110100001110000011 '
b00000000000000010100001100001100 (
b00000000000000000000000000000000 )
b00000000000000000000000000001000 *
b00000000000000000000000000001000 +
b00000000000000010100001100010100 ,
b00000000000000000000000011111100 -
b00000000000000000000000011111100 .
10
b01 1
b00 3
0:
0;
b100 <
0>
b0000011 ?
b00010100001100010100 @
b0000000010101000 B
b00111 C
b01110 D
b01000 E
b11111100111111001111101011110000 L
1f
#74
0f
#75
b00000000000000000000000010101100 #
b00000000000000000000000010110000 $
b00000000000000000000000010110000 %
b00000000000000000000000010110010 &
b00000000011000111000001100110011 '
b00000000000000000000000011111100 (
b11111100111111001111101011110000 )
b00000000000000000000000000000110 *
b11111100111111001111101011110000 +
b11111100111111001111101111101100 ,
b00000000000000000000000000000000 -
b11111100111111001111101111101100 .
00
b00 1
b10 3
1:
1;
b000 <
1>
b0110011 ?
b11001111101111101100 @
b0000000010101100 B
b00110 C
b00111 D
b00110 E
b00000000000000000000000011111100 M
1f
#76
0f
#77
b00000000000000000000000010110000 #
b00000000000000000000000010110100 $
b00000000000000000000000010110100 %
b00000000000000010000000010110000 &
b00000000000000010000111000110111 '
b00000000000000000000000000000000 (
b00000000000000000000000000000000 )
b00000000000000010000000000000000 *
b00000000000000010000000000000000 +
b00000000000000010000000000000000 ,
b00000000000000000000000001010101 -
b00000000000000010000000000000000 .
10
b011 2
b11 3
b0001 4
0:
0;
b0110111 ?
b00010000000000000000 @
b0000000010110000 B
b11100 C
b00010 D
b00000 E
b11111100111111001111101111101100 L
1f
#78
0f
#79
b00000000000000000000000010110100 #
b00000000000000000000000010111000 $
b00000000000000000000000010111000 %
b11111111111111111111110110110001 &
b11001111110111100000111000011011 '
b00000000000000010000000000000000 (
b11111111111111111111110011111101 *
b11111111111111111111110011111101 +
b00000000000000001111110011111101 ,
b00000000000000000000000000000000 -
b00000000000000001111110011111101 .
b000 2
b00 3
b0000 4
1=
0>
b0011011 ?
b00001111110011111101 @
b0000000010110100 B
b11100 D
b11101 E
b00000000000000010000000000000000 b
1f
#80
0f
#81
b00000000000000000000000010111000 #
b00000000000000000000000010111100 $
b00000000000000000000000010111100 %
b00000000000000000000000011001000 &
b00000001000011100001111000010011 '
b00000000000000001111110011111101 (
b00000000000000000000000000010000 *
b00000000000000000000000000010000 +
b11111100111111010000000000000000 ,
b11111100111111010000000000000000 .
b10 3
b0101 4
1:
b001 <
0=
b0010011 ?
b11010000000000000000 @
b0000000010111000 B
b10000 E
b00000000000000001111110011111101 b
1f
#82
0f
#83
b00000000000000000000000010111100 #
b00000000000000000000000011000000 $
b00000000000000000000000011000000 %
b11111111111111111111110010101000 &
b10111110110011100000111000010011 '
b11111100111111010000000000000000 (
b00000000000000000000000011111100 )
b11111111111111111111101111101100 *
b11111111111111111111101111101100 +
b11111100111111001111101111101100 ,
b11111100111111001111101111101100 .
b0000 4
b000 <
b11001111101111101100 @
b0000000010111100 B
b01100 E
b11111100111111010000000000000000 b
1f
#84
0f
#85
b00000000000000000000000011000000 #
b00000000000000000000000011000100 $
b00000000000000000000000011000100 %
b00000000000000000000000100010100 &
b00000101110000110001101001100011 '
b11111100111111001111101111101100 (
b11111100111111001111101111101100 )
b00000000000000000000000001010100 *
b11111100111111001111101111101100 +
b00000000000000000000000000000000 ,
b00000000000000000000000000000000 .
00
b010 2
b01 3
b1001 4
07
18
19
0:
b001 <
1>
b1100011 ?
b00000000000000000000 @
b0000000011000000 B
b10100 C
b00110 D
b11100 E
b11111100111111001111101111101100 b
1f
#86
0f
#87
b00000000000000000000000011000100 #
b00000000000000000000000000011100 $
b00000000000000000000000011001000 %
b00000000000000000000000011000100 &
b00000000000000001000000001100111 '
b00000000000000000000000000011100 (
b00000000000000000000000000000000 )
b00000000000000000000000000000000 *
b00000000000000000000000000000000 +
b00000000000000000000000000011100 ,
b00000000000000000000000000011100 .
b10 /
10
b000 2
b00 3
b0000 4
17
08
b000 <
b1100111 ?
b00000000000000011100 @
b0000000011000100 B
b00000 C
b00001 D
b00000 E
1f
#88
0f
